project_1/project_1.sim/sim_1/behav/xsim/simulate.log
Time resolution is 1 ps
Time:                    1, reset = 1, flick = x | State: 0000, Max:  0, Min:  0, Counter:  0, Lampstate:  1, Lamps: 0000000000000000
Time:                  101, reset = 1, flick = 1 | State: 0001, Max:  0, Min:  0, Counter:  0, Lampstate:  1, Lamps: 0000000000000000
Time:                  102, reset = 1, flick = 0 | State: 0001, Max:  0, Min:  0, Counter:  0, Lampstate:  1, Lamps: 0000000000000000
Time:                  103, reset = 1, flick = 0 | State: 0010, Max:  5, Min:  0, Counter:  0, Lampstate:  1, Lamps: 0000000000000000
Time:                  105, reset = 1, flick = 0 | State: 0010, Max:  5, Min:  0, Counter:  1, Lampstate:  1, Lamps: 0000000000000001
Time:                  107, reset = 1, flick = 0 | State: 0010, Max:  5, Min:  0, Counter:  2, Lampstate:  1, Lamps: 0000000000000011
Time:                  109, reset = 1, flick = 0 | State: 0010, Max:  5, Min:  0, Counter:  3, Lampstate:  1, Lamps: 0000000000000111
Time:                  111, reset = 1, flick = 0 | State: 0010, Max:  5, Min:  0, Counter:  4, Lampstate:  1, Lamps: 0000000000001111
Time:                  113, reset = 1, flick = 0 | State: 0010, Max:  5, Min:  0, Counter:  5, Lampstate:  1, Lamps: 0000000000011111
Time:                  115, reset = 1, flick = 0 | State: 0100, Max:  5, Min:  0, Counter:  6, Lampstate:  2, Lamps: 0000000000111111
Time:                  117, reset = 1, flick = 1 | State: 0011, Max:  5, Min:  0, Counter:  5, Lampstate:  2, Lamps: 0000000000111111
Time:                  118, reset = 1, flick = 0 | State: 0011, Max:  5, Min:  0, Counter:  5, Lampstate:  2, Lamps: 0000000000111111
Time:                  119, reset = 1, flick = 0 | State: 0011, Max:  5, Min:  0, Counter:  4, Lampstate:  2, Lamps: 0000000000011111
Time:                  121, reset = 1, flick = 0 | State: 0011, Max:  5, Min:  0, Counter:  3, Lampstate:  2, Lamps: 0000000000001111
Time:                  123, reset = 1, flick = 0 | State: 0011, Max:  5, Min:  0, Counter:  2, Lampstate:  2, Lamps: 0000000000000111
Time:                  125, reset = 1, flick = 0 | State: 0011, Max:  5, Min:  0, Counter:  1, Lampstate:  2, Lamps: 0000000000000011
Time:                  127, reset = 1, flick = 0 | State: 0011, Max:  5, Min:  0, Counter:  0, Lampstate:  2, Lamps: 0000000000000001
Time:                  129, reset = 1, flick = 0 | State: 0001, Max:  5, Min:  0, Counter: 31, Lampstate:  3, Lamps: 0000000000000000
Time:                  131, reset = 1, flick = 0 | State: 0010, Max: 10, Min:  0, Counter:  0, Lampstate:  3, Lamps: 0000000000000000
Time:                  133, reset = 1, flick = 0 | State: 0010, Max: 10, Min:  0, Counter:  1, Lampstate:  3, Lamps: 0000000000000001
Time:                  135, reset = 1, flick = 0 | State: 0010, Max: 10, Min:  0, Counter:  2, Lampstate:  3, Lamps: 0000000000000011
Time:                  137, reset = 1, flick = 0 | State: 0010, Max: 10, Min:  0, Counter:  3, Lampstate:  3, Lamps: 0000000000000111
Time:                  139, reset = 1, flick = 0 | State: 0010, Max: 10, Min:  0, Counter:  4, Lampstate:  3, Lamps: 0000000000001111
Time:                  141, reset = 1, flick = 0 | State: 0010, Max: 10, Min:  0, Counter:  5, Lampstate:  3, Lamps: 0000000000011111
Time:                  143, reset = 1, flick = 0 | State: 0010, Max: 10, Min:  0, Counter:  6, Lampstate:  3, Lamps: 0000000000111111
Time:                  145, reset = 1, flick = 1 | State: 0010, Max: 10, Min:  0, Counter:  7, Lampstate:  3, Lamps: 0000000001111111
Time:                  146, reset = 1, flick = 0 | State: 0010, Max: 10, Min:  0, Counter:  7, Lampstate:  3, Lamps: 0000000001111111
Time:                  147, reset = 1, flick = 0 | State: 0010, Max: 10, Min:  0, Counter:  8, Lampstate:  3, Lamps: 0000000011111111
Time:                  149, reset = 1, flick = 0 | State: 0010, Max: 10, Min:  0, Counter:  9, Lampstate:  3, Lamps: 0000000111111111
Time:                  151, reset = 1, flick = 0 | State: 0010, Max: 10, Min:  0, Counter: 10, Lampstate:  3, Lamps: 0000001111111111
Time:                  153, reset = 1, flick = 0 | State: 0100, Max: 10, Min:  0, Counter: 11, Lampstate:  4, Lamps: 0000011111111111
Time:                  155, reset = 1, flick = 0 | State: 0011, Max: 10, Min:  5, Counter: 10, Lampstate:  4, Lamps: 0000011111111111
Time:                  157, reset = 1, flick = 0 | State: 0011, Max: 10, Min:  5, Counter:  9, Lampstate:  4, Lamps: 0000001111111111
Time:                  159, reset = 1, flick = 0 | State: 0011, Max: 10, Min:  5, Counter:  8, Lampstate:  4, Lamps: 0000000111111111
Time:                  161, reset = 1, flick = 0 | State: 0011, Max: 10, Min:  5, Counter:  7, Lampstate:  4, Lamps: 0000000011111111
Time:                  163, reset = 1, flick = 0 | State: 0011, Max: 10, Min:  5, Counter:  6, Lampstate:  4, Lamps: 0000000001111111
Time:                  165, reset = 1, flick = 0 | State: 0011, Max: 10, Min:  5, Counter:  5, Lampstate:  4, Lamps: 0000000000111111
Time:                  167, reset = 1, flick = 0 | State: 0001, Max: 10, Min:  5, Counter:  4, Lampstate:  5, Lamps: 0000000000011111
Time:                  169, reset = 1, flick = 0 | State: 0010, Max: 15, Min:  5, Counter:  5, Lampstate:  5, Lamps: 0000000000011111
Time:                  171, reset = 1, flick = 0 | State: 0010, Max: 15, Min:  5, Counter:  6, Lampstate:  5, Lamps: 0000000000111111
Time:                  173, reset = 1, flick = 0 | State: 0010, Max: 15, Min:  5, Counter:  7, Lampstate:  5, Lamps: 0000000001111111
Time:                  175, reset = 1, flick = 0 | State: 0010, Max: 15, Min:  5, Counter:  8, Lampstate:  5, Lamps: 0000000011111111
Time:                  177, reset = 1, flick = 0 | State: 0010, Max: 15, Min:  5, Counter:  9, Lampstate:  5, Lamps: 0000000111111111
Time:                  179, reset = 1, flick = 0 | State: 0010, Max: 15, Min:  5, Counter: 10, Lampstate:  5, Lamps: 0000001111111111
Time:                  180, reset = 1, flick = 1 | State: 0100, Max: 15, Min:  5, Counter: 11, Lampstate:  4, Lamps: 0000011111111111
Time:                  181, reset = 1, flick = 1 | State: 0011, Max: 10, Min:  5, Counter: 11, Lampstate:  4, Lamps: 0000011111111111
Time:                  183, reset = 1, flick = 1 | State: 0011, Max: 10, Min:  5, Counter: 10, Lampstate:  4, Lamps: 0000011111111111
Time:                  185, reset = 1, flick = 0 | State: 0011, Max: 10, Min:  5, Counter:  9, Lampstate:  4, Lamps: 0000001111111111
Time:                  187, reset = 1, flick = 0 | State: 0011, Max: 10, Min:  5, Counter:  8, Lampstate:  4, Lamps: 0000000111111111
Time:                  189, reset = 1, flick = 0 | State: 0011, Max: 10, Min:  5, Counter:  7, Lampstate:  4, Lamps: 0000000011111111
Time:                  191, reset = 1, flick = 0 | State: 0011, Max: 10, Min:  5, Counter:  6, Lampstate:  4, Lamps: 0000000001111111
Time:                  193, reset = 1, flick = 0 | State: 0011, Max: 10, Min:  5, Counter:  5, Lampstate:  4, Lamps: 0000000000111111
Time:                  195, reset = 1, flick = 0 | State: 0001, Max: 10, Min:  5, Counter:  4, Lampstate:  5, Lamps: 0000000000011111
Time:                  197, reset = 1, flick = 0 | State: 0010, Max: 15, Min:  5, Counter:  5, Lampstate:  5, Lamps: 0000000000011111
Time:                  199, reset = 1, flick = 0 | State: 0010, Max: 15, Min:  5, Counter:  6, Lampstate:  5, Lamps: 0000000000111111
Time:                  201, reset = 1, flick = 0 | State: 0010, Max: 15, Min:  5, Counter:  7, Lampstate:  5, Lamps: 0000000001111111
Time:                  203, reset = 1, flick = 0 | State: 0010, Max: 15, Min:  5, Counter:  8, Lampstate:  5, Lamps: 0000000011111111
Time:                  205, reset = 1, flick = 0 | State: 0010, Max: 15, Min:  5, Counter:  9, Lampstate:  5, Lamps: 0000000111111111
Time:                  207, reset = 1, flick = 0 | State: 0010, Max: 15, Min:  5, Counter: 10, Lampstate:  5, Lamps: 0000001111111111
Time:                  209, reset = 1, flick = 0 | State: 0010, Max: 15, Min:  5, Counter: 11, Lampstate:  5, Lamps: 0000011111111111
Time:                  211, reset = 1, flick = 0 | State: 0010, Max: 15, Min:  5, Counter: 12, Lampstate:  5, Lamps: 0000111111111111
Time:                  213, reset = 1, flick = 0 | State: 0010, Max: 15, Min:  5, Counter: 13, Lampstate:  5, Lamps: 0001111111111111
Time:                  215, reset = 1, flick = 0 | State: 0010, Max: 15, Min:  5, Counter: 14, Lampstate:  5, Lamps: 0011111111111111
Time:                  217, reset = 1, flick = 0 | State: 0010, Max: 15, Min:  5, Counter: 15, Lampstate:  5, Lamps: 0111111111111111
Time:                  219, reset = 1, flick = 0 | State: 0100, Max: 15, Min:  5, Counter: 16, Lampstate:  6, Lamps: 1111111111111111
Time:                  221, reset = 1, flick = 0 | State: 0011, Max: 15, Min:  0, Counter: 15, Lampstate:  6, Lamps: 1111111111111111
Time:                  223, reset = 1, flick = 0 | State: 0011, Max: 15, Min:  0, Counter: 14, Lampstate:  6, Lamps: 0111111111111111
Time:                  225, reset = 1, flick = 0 | State: 0011, Max: 15, Min:  0, Counter: 13, Lampstate:  6, Lamps: 0011111111111111
Time:                  227, reset = 1, flick = 0 | State: 0011, Max: 15, Min:  0, Counter: 12, Lampstate:  6, Lamps: 0001111111111111
Time:                  229, reset = 1, flick = 0 | State: 0011, Max: 15, Min:  0, Counter: 11, Lampstate:  6, Lamps: 0000111111111111
Time:                  231, reset = 1, flick = 0 | State: 0011, Max: 15, Min:  0, Counter: 10, Lampstate:  6, Lamps: 0000011111111111
Time:                  233, reset = 1, flick = 0 | State: 0011, Max: 15, Min:  0, Counter:  9, Lampstate:  6, Lamps: 0000001111111111
Time:                  235, reset = 1, flick = 0 | State: 0011, Max: 15, Min:  0, Counter:  8, Lampstate:  6, Lamps: 0000000111111111
Time:                  237, reset = 1, flick = 0 | State: 0011, Max: 15, Min:  0, Counter:  7, Lampstate:  6, Lamps: 0000000011111111
Time:                  239, reset = 1, flick = 0 | State: 0011, Max: 15, Min:  0, Counter:  6, Lampstate:  6, Lamps: 0000000001111111
Time:                  241, reset = 1, flick = 0 | State: 0011, Max: 15, Min:  0, Counter:  5, Lampstate:  6, Lamps: 0000000000111111
Time:                  243, reset = 1, flick = 0 | State: 0011, Max: 15, Min:  0, Counter:  4, Lampstate:  6, Lamps: 0000000000011111
Time:                  245, reset = 1, flick = 0 | State: 0011, Max: 15, Min:  0, Counter:  3, Lampstate:  6, Lamps: 0000000000001111
Time:                  247, reset = 1, flick = 0 | State: 0011, Max: 15, Min:  0, Counter:  2, Lampstate:  6, Lamps: 0000000000000111
Time:                  249, reset = 1, flick = 0 | State: 0011, Max: 15, Min:  0, Counter:  1, Lampstate:  6, Lamps: 0000000000000011
Time:                  251, reset = 1, flick = 0 | State: 0011, Max: 15, Min:  0, Counter:  0, Lampstate:  6, Lamps: 0000000000000001
Time:                  253, reset = 1, flick = 0 | State: 0001, Max: 15, Min:  0, Counter: 31, Lampstate:  7, Lamps: 0000000000000000
Time:                  255, reset = 1, flick = 0 | State: 0100, Max: 15, Min:  0, Counter:  0, Lampstate:  7, Lamps: 1111111111111111
Time:                  257, reset = 1, flick = 0 | State: 0000, Max: 15, Min:  0, Counter: 15, Lampstate:  7, Lamps: 0000000000000000
Time:                  259, reset = 1, flick = 0 | State: 0000, Max:  0, Min:  0, Counter:  0, Lampstate:  1, Lamps: 0000000000000000
$finish called at time : 385 ns : File "C:/Users/Minh Hieu/OneDrive/Desktop/LAB_LSI/project_1/project_1.srcs/sim_1/new/lab1_1_sim.v" Line 59
