project_1/project_1.sim/sim_1/behav/xsim/simulate.log
Time resolution is 1 ps
Time:                    1, reset = 0, flick = x | State: 0000, Max:  x, Min:  x, Counter:  x, Lampstate:  x, Lamps: xxxxxxxxxxxxxxxx
Time:                   10, reset = 1, flick = x | State: 0000, Max:  x, Min:  x, Counter:  x, Lampstate:  x, Lamps: xxxxxxxxxxxxxxxx
Time:                   11, reset = 1, flick = x | State: 0000, Max:  0, Min:  0, Counter:  0, Lampstate:  1, Lamps: 0000000000000000
Time:                   20, reset = 1, flick = 0 | State: 0000, Max:  0, Min:  0, Counter:  0, Lampstate:  1, Lamps: 0000000000000000
Time:                   30, reset = 1, flick = 1 | State: 0001, Max:  0, Min:  0, Counter:  0, Lampstate:  1, Lamps: 0000000000000000
Time:                   31, reset = 1, flick = 0 | State: 0010, Max:  5, Min:  0, Counter:  0, Lampstate:  1, Lamps: 0000000000000000
Time:                   33, reset = 1, flick = 0 | State: 0010, Max:  5, Min:  0, Counter:  1, Lampstate:  1, Lamps: 0000000000000001
Time:                   35, reset = 1, flick = 0 | State: 0010, Max:  5, Min:  0, Counter:  2, Lampstate:  1, Lamps: 0000000000000011
Time:                   37, reset = 1, flick = 0 | State: 0010, Max:  5, Min:  0, Counter:  3, Lampstate:  1, Lamps: 0000000000000111
Time:                   39, reset = 1, flick = 0 | State: 0010, Max:  5, Min:  0, Counter:  4, Lampstate:  1, Lamps: 0000000000001111
Time:                   41, reset = 1, flick = 0 | State: 0010, Max:  5, Min:  0, Counter:  5, Lampstate:  1, Lamps: 0000000000011111
Time:                   43, reset = 1, flick = 0 | State: 0100, Max:  5, Min:  0, Counter:  6, Lampstate:  2, Lamps: 0000000000111111
Time:                   45, reset = 1, flick = 0 | State: 0011, Max:  5, Min:  0, Counter:  5, Lampstate:  2, Lamps: 0000000000111111
Time:                   47, reset = 1, flick = 0 | State: 0011, Max:  5, Min:  0, Counter:  4, Lampstate:  2, Lamps: 0000000000011111
Time:                   49, reset = 1, flick = 0 | State: 0011, Max:  5, Min:  0, Counter:  3, Lampstate:  2, Lamps: 0000000000001111
Time:                   51, reset = 1, flick = 0 | State: 0011, Max:  5, Min:  0, Counter:  2, Lampstate:  2, Lamps: 0000000000000111
Time:                   53, reset = 1, flick = 0 | State: 0011, Max:  5, Min:  0, Counter:  1, Lampstate:  2, Lamps: 0000000000000011
Time:                   55, reset = 1, flick = 0 | State: 0011, Max:  5, Min:  0, Counter:  0, Lampstate:  2, Lamps: 0000000000000001
Time:                   57, reset = 1, flick = 0 | State: 0001, Max:  5, Min:  0, Counter: 31, Lampstate:  3, Lamps: 0000000000000000
Time:                   59, reset = 1, flick = 0 | State: 0010, Max: 10, Min:  0, Counter:  0, Lampstate:  3, Lamps: 0000000000000000
Time:                   61, reset = 1, flick = 0 | State: 0010, Max: 10, Min:  0, Counter:  1, Lampstate:  3, Lamps: 0000000000000001
Time:                   63, reset = 1, flick = 0 | State: 0010, Max: 10, Min:  0, Counter:  2, Lampstate:  3, Lamps: 0000000000000011
Time:                   65, reset = 1, flick = 0 | State: 0010, Max: 10, Min:  0, Counter:  3, Lampstate:  3, Lamps: 0000000000000111
Time:                   67, reset = 1, flick = 0 | State: 0010, Max: 10, Min:  0, Counter:  4, Lampstate:  3, Lamps: 0000000000001111
Time:                   69, reset = 1, flick = 0 | State: 0010, Max: 10, Min:  0, Counter:  5, Lampstate:  3, Lamps: 0000000000011111
Time:                   71, reset = 1, flick = 0 | State: 0010, Max: 10, Min:  0, Counter:  6, Lampstate:  3, Lamps: 0000000000111111
Time:                   73, reset = 1, flick = 0 | State: 0010, Max: 10, Min:  0, Counter:  7, Lampstate:  3, Lamps: 0000000001111111
Time:                   75, reset = 1, flick = 0 | State: 0010, Max: 10, Min:  0, Counter:  8, Lampstate:  3, Lamps: 0000000011111111
Time:                   77, reset = 1, flick = 0 | State: 0010, Max: 10, Min:  0, Counter:  9, Lampstate:  3, Lamps: 0000000111111111
Time:                   79, reset = 1, flick = 0 | State: 0010, Max: 10, Min:  0, Counter: 10, Lampstate:  3, Lamps: 0000001111111111
Time:                   81, reset = 1, flick = 0 | State: 0100, Max: 10, Min:  0, Counter: 11, Lampstate:  4, Lamps: 0000011111111111
Time:                   83, reset = 1, flick = 0 | State: 0011, Max: 10, Min:  5, Counter: 10, Lampstate:  4, Lamps: 0000011111111111
Time:                   85, reset = 1, flick = 0 | State: 0011, Max: 10, Min:  5, Counter:  9, Lampstate:  4, Lamps: 0000001111111111
Time:                   87, reset = 1, flick = 0 | State: 0011, Max: 10, Min:  5, Counter:  8, Lampstate:  4, Lamps: 0000000111111111
Time:                   89, reset = 1, flick = 0 | State: 0011, Max: 10, Min:  5, Counter:  7, Lampstate:  4, Lamps: 0000000011111111
Time:                   91, reset = 1, flick = 0 | State: 0011, Max: 10, Min:  5, Counter:  6, Lampstate:  4, Lamps: 0000000001111111
Time:                   93, reset = 1, flick = 0 | State: 0011, Max: 10, Min:  5, Counter:  5, Lampstate:  4, Lamps: 0000000000111111
Time:                   95, reset = 1, flick = 0 | State: 0001, Max: 10, Min:  5, Counter:  4, Lampstate:  5, Lamps: 0000000000011111
Time:                   97, reset = 1, flick = 0 | State: 0010, Max: 15, Min:  5, Counter:  5, Lampstate:  5, Lamps: 0000000000011111
Time:                   99, reset = 1, flick = 0 | State: 0010, Max: 15, Min:  5, Counter:  6, Lampstate:  5, Lamps: 0000000000111111
Time:                  101, reset = 1, flick = 0 | State: 0010, Max: 15, Min:  5, Counter:  7, Lampstate:  5, Lamps: 0000000001111111
Time:                  103, reset = 1, flick = 0 | State: 0010, Max: 15, Min:  5, Counter:  8, Lampstate:  5, Lamps: 0000000011111111
Time:                  105, reset = 1, flick = 0 | State: 0010, Max: 15, Min:  5, Counter:  9, Lampstate:  5, Lamps: 0000000111111111
Time:                  107, reset = 1, flick = 0 | State: 0010, Max: 15, Min:  5, Counter: 10, Lampstate:  5, Lamps: 0000001111111111
Time:                  109, reset = 1, flick = 0 | State: 0010, Max: 15, Min:  5, Counter: 11, Lampstate:  5, Lamps: 0000011111111111
Time:                  111, reset = 1, flick = 0 | State: 0010, Max: 15, Min:  5, Counter: 12, Lampstate:  5, Lamps: 0000111111111111
Time:                  113, reset = 1, flick = 0 | State: 0010, Max: 15, Min:  5, Counter: 13, Lampstate:  5, Lamps: 0001111111111111
Time:                  115, reset = 1, flick = 0 | State: 0010, Max: 15, Min:  5, Counter: 14, Lampstate:  5, Lamps: 0011111111111111
Time:                  117, reset = 1, flick = 0 | State: 0010, Max: 15, Min:  5, Counter: 15, Lampstate:  5, Lamps: 0111111111111111
Time:                  119, reset = 1, flick = 0 | State: 0100, Max: 15, Min:  5, Counter: 16, Lampstate:  6, Lamps: 1111111111111111
Time:                  121, reset = 1, flick = 0 | State: 0011, Max: 15, Min:  0, Counter: 15, Lampstate:  6, Lamps: 1111111111111111
Time:                  123, reset = 1, flick = 0 | State: 0011, Max: 15, Min:  0, Counter: 14, Lampstate:  6, Lamps: 0111111111111111
Time:                  125, reset = 1, flick = 0 | State: 0011, Max: 15, Min:  0, Counter: 13, Lampstate:  6, Lamps: 0011111111111111
Time:                  127, reset = 1, flick = 0 | State: 0011, Max: 15, Min:  0, Counter: 12, Lampstate:  6, Lamps: 0001111111111111
Time:                  129, reset = 1, flick = 0 | State: 0011, Max: 15, Min:  0, Counter: 11, Lampstate:  6, Lamps: 0000111111111111
Time:                  131, reset = 1, flick = 0 | State: 0011, Max: 15, Min:  0, Counter: 10, Lampstate:  6, Lamps: 0000011111111111
Time:                  133, reset = 1, flick = 0 | State: 0011, Max: 15, Min:  0, Counter:  9, Lampstate:  6, Lamps: 0000001111111111
Time:                  135, reset = 1, flick = 0 | State: 0011, Max: 15, Min:  0, Counter:  8, Lampstate:  6, Lamps: 0000000111111111
Time:                  137, reset = 1, flick = 0 | State: 0011, Max: 15, Min:  0, Counter:  7, Lampstate:  6, Lamps: 0000000011111111
Time:                  139, reset = 1, flick = 0 | State: 0011, Max: 15, Min:  0, Counter:  6, Lampstate:  6, Lamps: 0000000001111111
Time:                  141, reset = 1, flick = 0 | State: 0011, Max: 15, Min:  0, Counter:  5, Lampstate:  6, Lamps: 0000000000111111
Time:                  143, reset = 1, flick = 0 | State: 0011, Max: 15, Min:  0, Counter:  4, Lampstate:  6, Lamps: 0000000000011111
Time:                  145, reset = 1, flick = 0 | State: 0011, Max: 15, Min:  0, Counter:  3, Lampstate:  6, Lamps: 0000000000001111
Time:                  147, reset = 1, flick = 0 | State: 0011, Max: 15, Min:  0, Counter:  2, Lampstate:  6, Lamps: 0000000000000111
Time:                  149, reset = 1, flick = 0 | State: 0011, Max: 15, Min:  0, Counter:  1, Lampstate:  6, Lamps: 0000000000000011
Time:                  151, reset = 1, flick = 0 | State: 0011, Max: 15, Min:  0, Counter:  0, Lampstate:  6, Lamps: 0000000000000001
Time:                  153, reset = 1, flick = 0 | State: 0001, Max: 15, Min:  0, Counter: 31, Lampstate:  7, Lamps: 0000000000000000
Time:                  155, reset = 1, flick = 0 | State: 0100, Max: 15, Min:  0, Counter:  0, Lampstate:  7, Lamps: 1111111111111111
Time:                  157, reset = 1, flick = 0 | State: 0000, Max: 15, Min:  0, Counter: 15, Lampstate:  7, Lamps: 0000000000000000
Time:                  159, reset = 1, flick = 0 | State: 0000, Max:  0, Min:  0, Counter:  0, Lampstate:  1, Lamps: 0000000000000000
Time:                  431, reset = 1, flick = 1 | State: 0001, Max:  0, Min:  0, Counter:  0, Lampstate:  1, Lamps: 0000000000000000
Time:                  433, reset = 1, flick = 1 | State: 0010, Max:  5, Min:  0, Counter:  0, Lampstate:  1, Lamps: 0000000000000000
Time:                  435, reset = 1, flick = 1 | State: 0010, Max:  5, Min:  0, Counter:  1, Lampstate:  1, Lamps: 0000000000000001
Time:                  437, reset = 1, flick = 1 | State: 0010, Max:  5, Min:  0, Counter:  2, Lampstate:  1, Lamps: 0000000000000011
Time:                  439, reset = 1, flick = 1 | State: 0010, Max:  5, Min:  0, Counter:  3, Lampstate:  1, Lamps: 0000000000000111
Time:                  441, reset = 1, flick = 1 | State: 0010, Max:  5, Min:  0, Counter:  4, Lampstate:  1, Lamps: 0000000000001111
Time:                  443, reset = 1, flick = 1 | State: 0010, Max:  5, Min:  0, Counter:  5, Lampstate:  1, Lamps: 0000000000011111
Time:                  445, reset = 1, flick = 1 | State: 0100, Max:  5, Min:  0, Counter:  6, Lampstate:  2, Lamps: 0000000000111111
Time:                  447, reset = 1, flick = 1 | State: 0011, Max:  5, Min:  0, Counter:  5, Lampstate:  2, Lamps: 0000000000111111
Time:                  449, reset = 1, flick = 1 | State: 0011, Max:  5, Min:  0, Counter:  4, Lampstate:  2, Lamps: 0000000000011111
Time:                  451, reset = 1, flick = 1 | State: 0011, Max:  5, Min:  0, Counter:  3, Lampstate:  2, Lamps: 0000000000001111
Time:                  453, reset = 1, flick = 1 | State: 0011, Max:  5, Min:  0, Counter:  2, Lampstate:  2, Lamps: 0000000000000111
Time:                  455, reset = 1, flick = 1 | State: 0011, Max:  5, Min:  0, Counter:  1, Lampstate:  2, Lamps: 0000000000000011
Time:                  457, reset = 1, flick = 1 | State: 0011, Max:  5, Min:  0, Counter:  0, Lampstate:  2, Lamps: 0000000000000001
Time:                  459, reset = 1, flick = 1 | State: 0001, Max:  5, Min:  0, Counter: 31, Lampstate:  3, Lamps: 0000000000000000
Time:                  461, reset = 1, flick = 1 | State: 0010, Max: 10, Min:  0, Counter:  0, Lampstate:  3, Lamps: 0000000000000000
Time:                  463, reset = 1, flick = 1 | State: 0010, Max: 10, Min:  0, Counter:  1, Lampstate:  3, Lamps: 0000000000000001
Time:                  465, reset = 1, flick = 1 | State: 0010, Max: 10, Min:  0, Counter:  2, Lampstate:  3, Lamps: 0000000000000011
Time:                  467, reset = 1, flick = 1 | State: 0010, Max: 10, Min:  0, Counter:  3, Lampstate:  3, Lamps: 0000000000000111
Time:                  469, reset = 1, flick = 1 | State: 0010, Max: 10, Min:  0, Counter:  4, Lampstate:  3, Lamps: 0000000000001111
Time:                  471, reset = 1, flick = 1 | State: 0010, Max: 10, Min:  0, Counter:  5, Lampstate:  3, Lamps: 0000000000011111
Time:                  473, reset = 1, flick = 1 | State: 0100, Max: 10, Min:  0, Counter:  5, Lampstate:  2, Lamps: 0000000000011111
Time:                  475, reset = 1, flick = 1 | State: 0011, Max:  5, Min:  0, Counter:  5, Lampstate:  2, Lamps: 0000000000011111
Time:                  477, reset = 1, flick = 1 | State: 0011, Max:  5, Min:  0, Counter:  4, Lampstate:  2, Lamps: 0000000000011111
Time:                  479, reset = 1, flick = 1 | State: 0011, Max:  5, Min:  0, Counter:  3, Lampstate:  2, Lamps: 0000000000001111
Time:                  481, reset = 1, flick = 1 | State: 0011, Max:  5, Min:  0, Counter:  2, Lampstate:  2, Lamps: 0000000000000111
Time:                  483, reset = 1, flick = 1 | State: 0011, Max:  5, Min:  0, Counter:  1, Lampstate:  2, Lamps: 0000000000000011
Time:                  485, reset = 1, flick = 1 | State: 0011, Max:  5, Min:  0, Counter:  0, Lampstate:  2, Lamps: 0000000000000001
Time:                  487, reset = 1, flick = 1 | State: 0001, Max:  5, Min:  0, Counter: 31, Lampstate:  3, Lamps: 0000000000000000
Time:                  489, reset = 1, flick = 1 | State: 0010, Max: 10, Min:  0, Counter:  0, Lampstate:  3, Lamps: 0000000000000000
Time:                  491, reset = 1, flick = 1 | State: 0010, Max: 10, Min:  0, Counter:  1, Lampstate:  3, Lamps: 0000000000000001
Time:                  493, reset = 1, flick = 1 | State: 0010, Max: 10, Min:  0, Counter:  2, Lampstate:  3, Lamps: 0000000000000011
Time:                  495, reset = 1, flick = 1 | State: 0010, Max: 10, Min:  0, Counter:  3, Lampstate:  3, Lamps: 0000000000000111
Time:                  497, reset = 1, flick = 1 | State: 0010, Max: 10, Min:  0, Counter:  4, Lampstate:  3, Lamps: 0000000000001111
Time:                  499, reset = 1, flick = 1 | State: 0010, Max: 10, Min:  0, Counter:  5, Lampstate:  3, Lamps: 0000000000011111
Time:                  501, reset = 1, flick = 1 | State: 0100, Max: 10, Min:  0, Counter:  5, Lampstate:  2, Lamps: 0000000000011111
Time:                  503, reset = 1, flick = 1 | State: 0011, Max:  5, Min:  0, Counter:  5, Lampstate:  2, Lamps: 0000000000011111
Time:                  505, reset = 1, flick = 1 | State: 0011, Max:  5, Min:  0, Counter:  4, Lampstate:  2, Lamps: 0000000000011111
Time:                  507, reset = 1, flick = 1 | State: 0011, Max:  5, Min:  0, Counter:  3, Lampstate:  2, Lamps: 0000000000001111
Time:                  509, reset = 1, flick = 1 | State: 0011, Max:  5, Min:  0, Counter:  2, Lampstate:  2, Lamps: 0000000000000111
Time:                  511, reset = 1, flick = 1 | State: 0011, Max:  5, Min:  0, Counter:  1, Lampstate:  2, Lamps: 0000000000000011
Time:                  513, reset = 1, flick = 1 | State: 0011, Max:  5, Min:  0, Counter:  0, Lampstate:  2, Lamps: 0000000000000001
Time:                  515, reset = 1, flick = 1 | State: 0001, Max:  5, Min:  0, Counter: 31, Lampstate:  3, Lamps: 0000000000000000
Time:                  517, reset = 1, flick = 1 | State: 0010, Max: 10, Min:  0, Counter:  0, Lampstate:  3, Lamps: 0000000000000000
Time:                  519, reset = 1, flick = 1 | State: 0010, Max: 10, Min:  0, Counter:  1, Lampstate:  3, Lamps: 0000000000000001
Time:                  521, reset = 1, flick = 1 | State: 0010, Max: 10, Min:  0, Counter:  2, Lampstate:  3, Lamps: 0000000000000011
Time:                  523, reset = 1, flick = 1 | State: 0010, Max: 10, Min:  0, Counter:  3, Lampstate:  3, Lamps: 0000000000000111
Time:                  525, reset = 1, flick = 1 | State: 0010, Max: 10, Min:  0, Counter:  4, Lampstate:  3, Lamps: 0000000000001111
Time:                  527, reset = 1, flick = 1 | State: 0010, Max: 10, Min:  0, Counter:  5, Lampstate:  3, Lamps: 0000000000011111
Time:                  529, reset = 1, flick = 1 | State: 0100, Max: 10, Min:  0, Counter:  5, Lampstate:  2, Lamps: 0000000000011111
Time:                  531, reset = 1, flick = 1 | State: 0011, Max:  5, Min:  0, Counter:  5, Lampstate:  2, Lamps: 0000000000011111
Time:                  533, reset = 1, flick = 1 | State: 0011, Max:  5, Min:  0, Counter:  4, Lampstate:  2, Lamps: 0000000000011111
Time:                  535, reset = 1, flick = 1 | State: 0011, Max:  5, Min:  0, Counter:  3, Lampstate:  2, Lamps: 0000000000001111
Time:                  537, reset = 1, flick = 1 | State: 0011, Max:  5, Min:  0, Counter:  2, Lampstate:  2, Lamps: 0000000000000111
Time:                  539, reset = 1, flick = 1 | State: 0011, Max:  5, Min:  0, Counter:  1, Lampstate:  2, Lamps: 0000000000000011
Time:                  541, reset = 1, flick = 1 | State: 0011, Max:  5, Min:  0, Counter:  0, Lampstate:  2, Lamps: 0000000000000001
Time:                  543, reset = 1, flick = 1 | State: 0001, Max:  5, Min:  0, Counter: 31, Lampstate:  3, Lamps: 0000000000000000
Time:                  545, reset = 1, flick = 1 | State: 0010, Max: 10, Min:  0, Counter:  0, Lampstate:  3, Lamps: 0000000000000000
Time:                  547, reset = 1, flick = 1 | State: 0010, Max: 10, Min:  0, Counter:  1, Lampstate:  3, Lamps: 0000000000000001
Time:                  549, reset = 1, flick = 1 | State: 0010, Max: 10, Min:  0, Counter:  2, Lampstate:  3, Lamps: 0000000000000011
Time:                  551, reset = 1, flick = 1 | State: 0010, Max: 10, Min:  0, Counter:  3, Lampstate:  3, Lamps: 0000000000000111
Time:                  553, reset = 1, flick = 1 | State: 0010, Max: 10, Min:  0, Counter:  4, Lampstate:  3, Lamps: 0000000000001111
Time:                  555, reset = 1, flick = 1 | State: 0010, Max: 10, Min:  0, Counter:  5, Lampstate:  3, Lamps: 0000000000011111
Time:                  557, reset = 1, flick = 1 | State: 0100, Max: 10, Min:  0, Counter:  5, Lampstate:  2, Lamps: 0000000000011111
Time:                  559, reset = 1, flick = 1 | State: 0011, Max:  5, Min:  0, Counter:  5, Lampstate:  2, Lamps: 0000000000011111
Time:                  561, reset = 1, flick = 1 | State: 0011, Max:  5, Min:  0, Counter:  4, Lampstate:  2, Lamps: 0000000000011111
Time:                  563, reset = 1, flick = 1 | State: 0011, Max:  5, Min:  0, Counter:  3, Lampstate:  2, Lamps: 0000000000001111
Time:                  565, reset = 1, flick = 1 | State: 0011, Max:  5, Min:  0, Counter:  2, Lampstate:  2, Lamps: 0000000000000111
Time:                  567, reset = 1, flick = 1 | State: 0011, Max:  5, Min:  0, Counter:  1, Lampstate:  2, Lamps: 0000000000000011
Time:                  569, reset = 1, flick = 1 | State: 0011, Max:  5, Min:  0, Counter:  0, Lampstate:  2, Lamps: 0000000000000001
Time:                  571, reset = 1, flick = 1 | State: 0001, Max:  5, Min:  0, Counter: 31, Lampstate:  3, Lamps: 0000000000000000
Time:                  573, reset = 1, flick = 1 | State: 0010, Max: 10, Min:  0, Counter:  0, Lampstate:  3, Lamps: 0000000000000000
Time:                  575, reset = 1, flick = 1 | State: 0010, Max: 10, Min:  0, Counter:  1, Lampstate:  3, Lamps: 0000000000000001
Time:                  577, reset = 1, flick = 1 | State: 0010, Max: 10, Min:  0, Counter:  2, Lampstate:  3, Lamps: 0000000000000011
Time:                  579, reset = 1, flick = 1 | State: 0010, Max: 10, Min:  0, Counter:  3, Lampstate:  3, Lamps: 0000000000000111
Time:                  581, reset = 1, flick = 1 | State: 0010, Max: 10, Min:  0, Counter:  4, Lampstate:  3, Lamps: 0000000000001111
Time:                  583, reset = 1, flick = 1 | State: 0010, Max: 10, Min:  0, Counter:  5, Lampstate:  3, Lamps: 0000000000011111
Time:                  585, reset = 1, flick = 1 | State: 0100, Max: 10, Min:  0, Counter:  5, Lampstate:  2, Lamps: 0000000000011111
Time:                  587, reset = 1, flick = 1 | State: 0011, Max:  5, Min:  0, Counter:  5, Lampstate:  2, Lamps: 0000000000011111
Time:                  589, reset = 1, flick = 1 | State: 0011, Max:  5, Min:  0, Counter:  4, Lampstate:  2, Lamps: 0000000000011111
Time:                  591, reset = 1, flick = 1 | State: 0011, Max:  5, Min:  0, Counter:  3, Lampstate:  2, Lamps: 0000000000001111
Time:                  593, reset = 1, flick = 1 | State: 0011, Max:  5, Min:  0, Counter:  2, Lampstate:  2, Lamps: 0000000000000111
Time:                  595, reset = 1, flick = 1 | State: 0011, Max:  5, Min:  0, Counte