project_1/project_1.sim/sim_1/behav/xsim/simulate.log
Time resolution is 1 ps
Time:                    1, reset = 1, flick = 0 | State: 0000, Max:  0, Min:  0, Counter:  0, Lampstate:  1, Lamps: 0000000000000000
Time:                  101, reset = 1, flick = 1 | State: 0001, Max:  0, Min:  0, Counter:  0, Lampstate:  1, Lamps: 0000000000000000
Time:                  103, reset = 1, flick = 1 | State: 0010, Max:  5, Min:  0, Counter:  0, Lampstate:  1, Lamps: 0000000000000000
Time:                  105, reset = 1, flick = 1 | State: 0010, Max:  5, Min:  0, Counter:  1, Lampstate:  1, Lamps: 0000000000000001
Time:                  107, reset = 1, flick = 1 | State: 0010, Max:  5, Min:  0, Counter:  2, Lampstate:  1, Lamps: 0000000000000011
Time:                  109, reset = 1, flick = 1 | State: 0010, Max:  5, Min:  0, Counter:  3, Lampstate:  1, Lamps: 0000000000000111
Time:                  111, reset = 1, flick = 0 | State: 0010, Max:  5, Min:  0, Counter:  4, Lampstate:  1, Lamps: 0000000000001111
Time:                  113, reset = 1, flick = 0 | State: 0010, Max:  5, Min:  0, Counter:  5, Lampstate:  1, Lamps: 0000000000011111
Time:                  115, reset = 1, flick = 0 | State: 0100, Max:  5, Min:  0, Counter:  6, Lampstate:  2, Lamps: 0000000000111111
Time:                  117, reset = 1, flick = 0 | State: 0011, Max:  5, Min:  0, Counter:  5, Lampstate:  2, Lamps: 0000000000111111
Time:                  119, reset = 1, flick = 0 | State: 0011, Max:  5, Min:  0, Counter:  4, Lampstate:  2, Lamps: 0000000000011111
Time:                  121, reset = 1, flick = 0 | State: 0011, Max:  5, Min:  0, Counter:  3, Lampstate:  2, Lamps: 0000000000001111
Time:                  123, reset = 1, flick = 0 | State: 0011, Max:  5, Min:  0, Counter:  2, Lampstate:  2, Lamps: 0000000000000111
Time:                  125, reset = 1, flick = 0 | State: 0011, Max:  5, Min:  0, Counter:  1, Lampstate:  2, Lamps: 0000000000000011
Time:                  127, reset = 1, flick = 0 | State: 0011, Max:  5, Min:  0, Counter:  0, Lampstate:  2, Lamps: 0000000000000001
Time:                  129, reset = 1, flick = 0 | State: 0001, Max:  5, Min:  0, Counter: 31, Lampstate:  3, Lamps: 0000000000000000
Time:                  131, reset = 1, flick = 1 | State: 0010, Max: 10, Min:  0, Counter:  0, Lampstate:  3, Lamps: 0000000000000000
Time:                  133, reset = 1, flick = 1 | State: 0010, Max: 10, Min:  0, Counter:  1, Lampstate:  3, Lamps: 0000000000000001
Time:                  135, reset = 1, flick = 1 | State: 0010, Max: 10, Min:  0, Counter:  2, Lampstate:  3, Lamps: 0000000000000011
Time:                  137, reset = 1, flick = 1 | State: 0010, Max: 10, Min:  0, Counter:  3, Lampstate:  3, Lamps: 0000000000000111
Time:                  139, reset = 1, flick = 1 | State: 0010, Max: 10, Min:  0, Counter:  4, Lampstate:  3, Lamps: 0000000000001111
Time:                  141, reset = 1, flick = 0 | State: 0010, Max: 10, Min:  0, Counter:  5, Lampstate:  3, Lamps: 0000000000011111
Time:                  143, reset = 1, flick = 0 | State: 0010, Max: 10, Min:  0, Counter:  6, Lampstate:  3, Lamps: 0000000000111111
Time:                  145, reset = 1, flick = 0 | State: 0010, Max: 10, Min:  0, Counter:  7, Lampstate:  3, Lamps: 0000000001111111
Time:                  147, reset = 1, flick = 0 | State: 0010, Max: 10, Min:  0, Counter:  8, Lampstate:  3, Lamps: 0000000011111111
Time:                  149, reset = 1, flick = 0 | State: 0010, Max: 10, Min:  0, Counter:  9, Lampstate:  3, Lamps: 0000000111111111
Time:                  151, reset = 1, flick = 0 | State: 0010, Max: 10, Min:  0, Counter: 10, Lampstate:  3, Lamps: 0000001111111111
Time:                  152, reset = 1, flick = 1 | State: 0100, Max: 10, Min:  0, Counter: 11, Lampstate:  3, Lamps: 0000011111111111
Time:                  153, reset = 1, flick = 1 | State: 0011, Max: 10, Min:  0, Counter: 11, Lampstate:  3, Lamps: 0000011111111111
Time:                  155, reset = 1, flick = 1 | State: 0011, Max: 10, Min:  0, Counter: 10, Lampstate:  3, Lamps: 0000011111111111
Time:                  157, reset = 0, flick = 1 | State: 0000, Max: 10, Min:  0, Counter: 10, Lampstate:  3, Lamps: 0000000000000000
Time:                  158, reset = 1, flick = 1 | State: 0000, Max: 10, Min:  0, Counter: 10, Lampstate:  3, Lamps: 0000000000000000
Time:                  159, reset = 1, flick = 1 | State: 0001, Max:  0, Min:  0, Counter:  0, Lampstate:  1, Lamps: 0000000000000000
Time:                  161, reset = 1, flick = 1 | State: 0010, Max:  5, Min:  0, Counter:  0, Lampstate:  1, Lamps: 0000000000000000
Time:                  163, reset = 1, flick = 1 | State: 0010, Max:  5, Min:  0, Counter:  1, Lampstate:  1, Lamps: 0000000000000001
Time:                  165, reset = 1, flick = 1 | State: 0010, Max:  5, Min:  0, Counter:  2, Lampstate:  1, Lamps: 0000000000000011
Time:                  167, reset = 1, flick = 1 | State: 0010, Max:  5, Min:  0, Counter:  3, Lampstate:  1, Lamps: 0000000000000111
Time:                  169, reset = 1, flick = 1 | State: 0010, Max:  5, Min:  0, Counter:  4, Lampstate:  1, Lamps: 0000000000001111
Time:                  171, reset = 1, flick = 1 | State: 0010, Max:  5, Min:  0, Counter:  5, Lampstate:  1, Lamps: 0000000000011111
Time:                  173, reset = 1, flick = 1 | State: 0100, Max:  5, Min:  0, Counter:  6, Lampstate:  1, Lamps: 0000000000111111
Time:                  175, reset = 1, flick = 1 | State: 0011, Max:  5, Min:  0, Counter:  6, Lampstate:  1, Lamps: 0000000000111111
Time:                  177, reset = 1, flick = 1 | State: 0011, Max:  5, Min:  0, Counter:  5, Lampstate:  1, Lamps: 0000000000111111
Time:                  179, reset = 1, flick = 1 | State: 0011, Max:  5, Min:  0, Counter:  4, Lampstate:  1, Lamps: 0000000000011111
Time:                  181, reset = 1, flick = 1 | State: 0011, Max:  5, Min:  0, Counter:  3, Lampstate:  1, Lamps: 0000000000001111
Time:                  183, reset = 1, flick = 1 | State: 0011, Max:  5, Min:  0, Counter:  2, Lampstate:  1, Lamps: 0000000000000111
Time:                  185, reset = 1, flick = 1 | State: 0011, Max:  5, Min:  0, Counter:  1, Lampstate:  1, Lamps: 0000000000000011
Time:                  187, reset = 1, flick = 1 | State: 0011, Max:  5, Min:  0, Counter:  0, Lampstate:  1, Lamps: 0000000000000001
Time:                  189, reset = 1, flick = 1 | State: 0001, Max:  5, Min:  0, Counter: 31, Lampstate:  2, Lamps: 0000000000000000
Time:                  191, reset = 1, flick = 1 | State: 0010, Max:  5, Min:  0, Counter:  0, Lampstate:  2, Lamps: 0000000000000000
Time:                  193, reset = 1, flick = 1 | State: 0010, Max:  5, Min:  0, Counter:  1, Lampstate:  2, Lamps: 0000000000000001
Time:                  195, reset = 1, flick = 1 | State: 0010, Max:  5, Min:  0, Counter:  2, Lampstate:  2, Lamps: 0000000000000011
Time:                  197, reset = 1, flick = 1 | State: 0010, Max:  5, Min:  0, Counter:  3, Lampstate:  2, Lamps: 0000000000000111
Time:                  198, reset = 1, flick = 0 | State: 0010, Max:  5, Min:  0, Counter:  3, Lampstate:  2, Lamps: 0000000000000111
Time:                  199, reset = 1, flick = 0 | State: 0010, Max:  5, Min:  0, Counter:  4, Lampstate:  2, Lamps: 0000000000001111
Time:                  201, reset = 1, flick = 0 | State: 0010, Max:  5, Min:  0, Counter:  5, Lampstate:  2, Lamps: 0000000000011111
Time:                  203, reset = 1, flick = 0 | State: 0100, Max:  5, Min:  0, Counter:  6, Lampstate:  3, Lamps: 0000000000111111
Time:                  205, reset = 1, flick = 0 | State: 0011, Max:  5, Min:  0, Counter:  5, Lampstate:  3, Lamps: 0000000000111111
Time:                  207, reset = 1, flick = 0 | State: 0011, Max:  5, Min:  0, Counter:  4, Lampstate:  3, Lamps: 0000000000011111
Time:                  209, reset = 1, flick = 0 | State: 0011, Max:  5, Min:  0, Counter:  3, Lampstate:  3, Lamps: 0000000000001111
Time:                  211, reset = 1, flick = 0 | State: 0011, Max:  5, Min:  0, Counter:  2, Lampstate:  3, Lamps: 0000000000000111
Time:                  213, reset = 1, flick = 0 | State: 0011, Max:  5, Min:  0, Counter:  1, Lampstate:  3, Lamps: 0000000000000011
Time:                  215, reset = 1, flick = 0 | State: 0011, Max:  5, Min:  0, Counter:  0, Lampstate:  3, Lamps: 0000000000000001
Time:                  217, reset = 1, flick = 0 | State: 0001, Max:  5, Min:  0, Counter: 31, Lampstate:  4, Lamps: 0000000000000000
Time:                  218, reset = 1, flick = 1 | State: 0010, Max:  5, Min:  0, Counter:  0, Lampstate:  4, Lamps: 0000000000000000
Time:                  219, reset = 1, flick = 1 | State: 0010, Max:  5, Min:  0, Counter:  1, Lampstate:  4, Lamps: 0000000000000001
Time:                  221, reset = 1, flick = 1 | State: 0010, Max:  5, Min:  0, Counter:  2, Lampstate:  4, Lamps: 0000000000000011
Time:                  223, reset = 1, flick = 1 | State: 0010, Max:  5, Min:  0, Counter:  3, Lampstate:  4, Lamps: 0000000000000111
Time:                  225, reset = 1, flick = 1 | State: 0010, Max:  5, Min:  0, Counter:  4, Lampstate:  4, Lamps: 0000000000001111
Time:                  227, reset = 1, flick = 1 | State: 0010, Max:  5, Min:  0, Counter:  5, Lampstate:  4, Lamps: 0000000000011111
Time:                  229, reset = 1, flick = 1 | State: 0100, Max:  5, Min:  0, Counter:  6, Lampstate:  4, Lamps: 0000000000111111
Time:                  231, reset = 1, flick = 1 | State: 0011, Max: 10, Min:  5, Counter:  6, Lampstate:  4, Lamps: 0000000000111111
Time:                  233, reset = 1, flick = 1 | State: 0011, Max: 10, Min:  5, Counter:  5, Lampstate:  4, Lamps: 0000000000111111
Time:                  235, reset = 1, flick = 1 | State: 0001, Max: 10, Min:  5, Counter:  4, Lampstate:  5, Lamps: 0000000000011111
Time:                  237, reset = 1, flick = 1 | State: 0010, Max: 15, Min:  5, Counter:  5, Lampstate:  5, Lamps: 0000000000011111
Time:                  239, reset = 1, flick = 1 | State: 0100, Max: 15, Min:  5, Counter:  6, Lampstate:  4, Lamps: 0000000000111111
Time:                  241, reset = 1, flick = 1 | State: 0011, Max: 10, Min:  5, Counter:  6, Lampstate:  4, Lamps: 0000000000111111
Time:                  243, reset = 1, flick = 1 | State: 0011, Max: 10, Min:  5, Counter:  5, Lampstate:  4, Lamps: 0000000000111111
Time:                  245, reset = 1, flick = 1 | State: 0001, Max: 10, Min:  5, Counter:  4, Lampstate:  5, Lamps: 0000000000011111
Time:                  247, reset = 1, flick = 1 | State: 0010, Max: 15, Min:  5, Counter:  5, Lampstate:  5, Lamps: 0000000000011111
Time:                  249, reset = 1, flick = 1 | State: 0100, Max: 15, Min:  5, Counter:  6, Lampstate:  4, Lamps: 0000000000111111
Time:                  251, reset = 1, flick = 1 | State: 0011, Max: 10, Min:  5, Counter:  6, Lampstate:  4, Lamps: 0000000000111111
Time:                  253, reset = 1, flick = 1 | State: 0011, Max: 10, Min:  5, Counter:  5, Lampstate:  4, Lamps: 0000000000111111
Time:                  255, reset = 1, flick = 1 | State: 0001, Max: 10, Min:  5, Counter:  4, Lampstate:  5, Lamps: 0000000000011111
Time:                  257, reset = 1, flick = 1 | State: 0010, Max: 15, Min:  5, Counter:  5, Lampstate:  5, Lamps: 0000000000011111
Time:                  259, reset = 1, flick = 1 | State: 0100, Max: 15, Min:  5, Counter:  6, Lampstate:  4, Lamps: 0000000000111111
Time:                  261, reset = 1, flick = 1 | State: 0011, Max: 10, Min:  5, Counter:  6, Lampstate:  4, Lamps: 0000000000111111
Time:                  263, reset = 1, flick = 1 | State: 0011, Max: 10, Min:  5, Counter:  5, Lampstate:  4, Lamps: 0000000000111111
Time:                  265, reset = 1, flick = 1 | State: 0001, Max: 10, Min:  5, Counter:  4, Lampstate:  5, Lamps: 0000000000011111
Time:                  267, reset = 1, flick = 1 | State: 0010, Max: 15, Min:  5, Counter:  5, Lampstate:  5, Lamps: 0000000000011111
Time:                  269, reset = 1, flick = 1 | State: 0100, Max: 15, Min:  5, Counter:  6, Lampstate:  4, Lamps: 0000000000111111
Time:                  271, reset = 1, flick = 1 | State: 0011, Max: 10, Min:  5, Counter:  6, Lampstate:  4, Lamps: 0000000000111111
Time:                  273, reset = 1, flick = 1 | State: 0011, Max: 10, Min:  5, Counter:  5, Lampstate:  4, Lamps: 0000000000111111
Time:                  275, reset = 1, flick = 1 | State: 0001, Max: 10, Min:  5, Counter:  4, Lampstate:  5, Lamps: 0000000000011111
Time:                  277, reset = 1, flick = 1 | State: 0010, Max: 15, Min:  5, Counter:  5, Lampstate:  5, Lamps: 0000000000011111
Time:                  279, reset = 1, flick = 1 | State: 0100, Max: 15, Min:  5, Counter:  6, Lampstate:  4, Lamps: 0000000000111111
Time:                  281, reset = 1, flick = 1 | State: 0011, Max: 10, Min:  5, Counter:  6, Lampstate:  4, Lamps: 0000000000111111
Time:                  283, reset = 1, flick = 1 | State: 0011, Max: 10, Min:  5, Counter:  5, Lampstate:  4, Lamps: 0000000000111111
Time:                  285, reset = 1, flick = 1 | State: 0001, Max: 10, Min:  5, Counter:  4, Lampstate:  5, Lamps: 0000000000011111
Time:                  287, reset = 1, flick = 1 | State: 0010, Max: 15, Min:  5, Counter:  5, Lampstate:  5, Lamps: 0000000000011111
Time:                  289, reset = 1, flick = 1 | State: 0100, Max: 15, Min:  5, Counter:  6, Lampstate:  4, Lamps: 0000000000111111
Time:                  291, reset = 1, flick = 1 | State: 0011, Max: 10, Min:  5, Counter:  6, Lampstate:  4, Lamps: 0000000000111111
Time:                  293, reset = 1, flick = 1 | State: 0011, Max: 10, Min:  5, Counter:  5, Lampstate:  4, Lamps: 0000000000111111
Time:                  295, reset = 1, flick = 1 | State: 0001, Max: 10, Min:  5, Counter:  4, Lampstate:  5, Lamps: 0000000000011111
Time:                  297, reset = 1, flick = 1 | State: 0010, Max: 15, Min:  5, Counter:  5, Lampstate:  5, Lamps: 0000000000011111
Time:                  299, reset = 1, flick = 1 | State: 0100, Max: 15, Min:  5, Counter:  6, Lampstate:  4, Lamps: 0000000000111111
Time:                  301, reset = 1, flick = 1 | State: 0011, Max: 10, Min:  5, Counter:  6, Lampstate:  4, Lamps: 0000000000111111
Time:                  303, reset = 1, flick = 1 | State: 0011, Max: 10, Min:  5, Counter:  5, Lampstate:  4, Lamps: 0000000000111111
Time:                  305, reset = 1, flick = 1 | State: 0001, Max: 10, Min:  5, Counter:  4, Lampstate:  5, Lamps: 0000000000011111
Time:                  307, reset = 1, flick = 1 | State: 0010, Max: 15, Min:  5, Counter:  5, Lampstate:  5, Lamps: 0000000000011111
Time:                  308, reset = 1, flick = 0 | State: 0010, Max: 15, Min:  5, Counter:  5, Lampstate:  5, Lamps: 0000000000011111
Time:                  309, reset = 1, flick = 0 | State: 0010, Max: 15, Min:  5, Counter:  6, Lampstate:  5, Lamps: 0000000000111111
Time:                  311, reset = 1, flick = 0 | State: 0010, Max: 15, Min:  5, Counter:  7, Lampstate:  5, Lamps: 0000000001111111
Time:                  313, reset = 1, flick = 0 | State: 0010, Max: 15, Min:  5, Counter:  8, Lampstate:  5, Lamps: 0000000011111111
Time:                  315, reset = 1, flick = 0 | State: 0010, Max: 15, Min:  5, Counter:  9, Lampstate:  5, Lamps: 0000000111111111
Time:                  317, reset = 1, flick = 0 | State: 0010, Max: 15, Min:  5, Counter: 10, Lampstate:  5, Lamps: 0000001111111111
Time:                  319, reset = 1, flick = 0 | State: 0010, Max: 15, Min:  5, Counter: 11, Lampstate:  5, Lamps: 0000011111111111
Time:                  321, reset = 1, flick = 0 | State: 0010, Max: 15, Min:  5, Counter: 12, Lampstate:  5, Lamps: 0000111111111111
Time:                  323, reset = 1, flick = 0 | State: 0010, Max: 15, Min:  5, Counter: 13, Lampstate:  5, Lamps: 0001111111111111
Time:                  325, reset = 1, flick = 0 | State: 0010, Max: 15, Min:  5, Counter: 14, Lampstate:  5, Lamps: 0011111111111111
Time:                  327, reset = 1, flick = 0 | State: 0010, Max: 15, Min:  5, Counter: 15, Lampstate:  5, Lamps: 0111111111111111
Time:                  328, reset = 1, flick = 1 | State: 0100, Max: 15, Min:  5, Counter: 16, Lampstate:  6, Lamps: 1111111111111111
Time:                  329, reset = 1, flick = 1 | State: 0011, Max: 15, Min:  0, Counter: 15, Lampstate:  6, Lamps: 1111111111111111
Time:                  331, reset = 1, flick = 1 | State: 0011, Max: 15, Min:  0, Counter: 14, Lampstate:  6, Lamps: 0111111111111111
Time:                  333, reset = 1, flick = 1 | State: 0011, Max: 15, Min:  0, Counter: 13, Lampstate:  6, Lamps: 0011111111111111
Time:                  335, reset = 1, flick = 1 | State: 0011, Max: 15, Min:  0, Counter: 12, Lampstate:  6, Lamps: 0001111111111111
Time:                  337, reset = 1, flick = 1 | State: 0011, Max: 15, Min:  0, Counter: 11, Lampstate:  6, Lamps: 0000111111111111
Time:                  339, reset = 1, flick = 1 | State: 0011, Max: 15, Min:  0, Counter: 10, Lampstate:  6, Lamps: 0000011111111111
Time:                  341, reset = 1, flick = 1 | State: 0011, Max: 15, Min:  0, Counter:  9, Lampstate:  6, Lamps: 0000001111111111
Time:                  343, reset = 1, flick = 1 | State: 0011, Max: 15, Min:  0, Counter:  8, Lampstate:  6, Lamps: 0000000111111111
Time:                  345, reset = 1, flick = 1 | State: 0011, Max: 15, Min:  0, Counter:  7, Lampstate:  6, Lamps: 0000000011111111
Time:                  347, reset = 1, flick = 1 | State: 0011, Max: 15, Min:  0, Counter:  6, Lampstate:  6, Lamps: 0000000001111111
Time:                  349, reset = 1, flick = 1 | State: 0011, Max: 15, Min:  0, Counter:  5, Lampstate:  6, Lamps: 0000000000111111
Time:                  351, reset = 1, flick = 1 | State: 0011, Max: 15, Min:  0, Counter:  4, Lampstate:  6, Lamps: 0000000000011111
Time:                  353, reset = 1, flick = 1 | State: 0011, Max: 15, Min:  0, Counter:  3, Lampstate:  6, Lamps: 0000000000001111
Time:                  355, reset = 1, flick = 1 | State: 0011, Max: 15, Min:  0, Counter:  2, Lampstate:  6, Lamps: 0000000000000111
Time:                  357, reset = 1, flick = 1 | State: 0011, Max: 15, Min:  0, Counter:  1, Lampstate:  6, Lamps: 0000000000000011
Time:                  359, reset = 1, flick = 1 | State: 0011, Max: 15, Min:  0, Counter:  0, Lampstate:  6, Lamps: 0000000000000001
Time:                  361, reset = 1, flick = 1 | State: 0001, Max: 15, Min:  0, Counter: 31, Lampstate:  7, Lamps: 0000000000000000
Time:                  363, reset = 1, flick = 1 | State: 0100, Max: 15, Min:  0, Counter:  0, Lampstate:  7, Lamps: 1111111111111111
Time:                  365, reset = 1, flick = 1 | State: 0000, Max: 15, Min:  0, Counter: 15, Lampstate:  7, Lamps: 0000000000000000
Time:                  367, reset = 1, flick = 1 | State: 0001, Max:  0, Min:  0, Counter:  0, Lampstate:  1, Lamps: 0000000000000000
Time:                  369, reset = 1, flick = 1 | State: 0010, Max:  5, Min:  0, Counter:  0, Lampstate:  1, Lamps: 0000000000000000
Time:                  371, reset = 1, flick = 1 | State: 0010, Max:  5, Min:  0, Counter:  1, Lampstate:  1, Lamps: 0000000000000001
Time:                  373, reset = 1, flick = 1 | State: 0010, Max:  5, Min:  0, Counter:  2, Lampstate:  1, Lamps: 0000000000000011
Time:                  375, reset = 1, flick = 1 | State: 0010, Max:  5, Min:  0, Counter:  3, Lampstate:  1, Lamps: 0000000000000111
Time:                  377, reset = 1, flick = 1 | State: 0010, Max:  5, Min:  0, Counter:  4, Lampstate:  1, Lamps: 0000000000001111
Time:                  379, reset = 1, flick = 1 | State: 0010, Max:  5, Min:  0, Counter:  5, Lampstate:  1, Lamps: 0000000000011111
Time:                  381, reset = 1, flick = 1 | State: 0100, Max:  5, Min:  0, Counter:  6, Lampstate:  1, Lamps: 0000000000111111
Time:                  383, reset = 1, flick = 1 | State: 0011, Max:  5, Min:  0, Counter:  6, Lampstate:  1, Lamps: 0000000000111111
Time:                  385, reset = 1, flick = 1 | State: 0011, Max:  5, Min:  0, Counter:  5, Lampstate:  1, Lamps: 0000000000111111
Time:                  387, reset = 1, flick = 1 | State: 0011, Max:  5, Min:  0, Counter:  4, Lampstate:  1, Lamps: 0000000000011111
Time:                  389, reset = 1, flick = 1 | State: 0011, Max:  5, Min:  0, Counter:  3, Lampstate:  1, Lamps: 0000000000001111
Time:                  391, reset = 1, flick = 1 | State: 0011, Max:  5, Min:  0, Counter:  2, Lampstate:  1, Lamps: 0000000000000111
Time:                  393, reset = 1, flick = 1 | State: 0011, Max:  5, Min:  0, Counter:  1, Lampstate:  1, Lamps: 0000000000000011
Time:                  395, reset = 1, flick = 1 | State: 0011, Max:  5, Min:  0, Counter:  0, Lampstate:  1, Lamps: 0000000000000001
Time:                  397, reset = 1, flick = 1 | State: 0001, Max:  5, Min:  0, Counter: 31, Lampstate:  2, Lamps: 0000000000000000
Time:                  399, reset = 1, flick = 1 | State: 0010, Max:  5, Min:  0, Counter:  0, Lampstate:  2, Lamps: 0000000000000000
Time:                  401, reset = 1, flick = 1 | State: 0010, Max:  5, Min:  0, Counter:  1, Lampstate:  2, Lamps: 0000000000000001
Time:                  403, reset = 1, flick = 1 | State: 0010, Max:  5, Min:  0, Counter:  2, Lampstate:  2, Lamps: 0000000000000011
Time:                  405, reset = 1, flick = 1 | State: 0010, Max:  5, Min:  0, Counter:  3, Lampstate:  2, Lamps: 0000000000000111
Time:                  407, reset = 1, flick = 1 | State: 0010, Max:  5, Min:  0, Counter:  4, Lampstate:  2, Lamps: 0000000000001111
Time:                  409, reset = 1, flick = 1 | State: 0010, Max:  5, Min:  0, Counter:  5, Lampstate:  2, Lamps: 0000000000011111
Time:                  411, reset = 1, flick = 1 | State: 0100, Max:  5, Min:  0, Counter:  6, Lampstate:  2, Lamps: 0000000000111111
Time:                  413, reset = 1, flick = 1 | State: 0011, Max:  5, Min:  0, Counter:  6, Lampstate:  2, Lamps: 0000000000111111
Time:                  415, reset = 1, flick = 1 | State: 0011, Max:  5, Min:  0, Counter:  5, Lampstate:  2, Lamps: 0000000000111111
Time:                  417, reset = 1, flick = 1 | State: 0011, Max:  5, Min:  0, Counter:  4, Lampstate:  2, Lamps: 0000000000011111
Time:                  419, reset = 1, flick = 1 | State: 0011, Max:  5, Min:  0, Counter:  3, Lampstate:  2, Lamps: 0000000000001111
Time:                  421, reset = 1, flick = 1 | State: 0011, Max:  5, Min:  0, Counter:  2, Lampstate:  2, Lamps: 0000000000000111
Time:                  423, reset = 1, flick = 1 | State: 0011, Max:  5, Min:  0, Counter:  1, Lampstate:  2, Lamps: 0000000000000011
Time:                  425, reset = 1, flick = 1 | State: 0011, Max:  5, Min:  0, Counter:  0, Lampstate:  2, Lamps: 0000000000000001
Time:                  427, reset = 1, flick = 1 | State: 0001, Max:  5, Min:  0, Counter: 31, Lampstate:  3, Lamps: 0000000000000000
Time:                  428, reset = 1, flick = 0 | State: 0001, Max:  5, Min:  0, Counter: 31, Lampstate:  3, Lamps: 0000000000000000
Time:                  429, reset = 1, flick = 0 | State: 0010, Max: 10, Min:  0, Counter:  0, Lampstate:  3, Lamps: 0000000000000000
Time:                  431, reset = 1, flick = 0 | State: 0010, Max: 10, Min:  0, Counter:  1, Lampstate:  3, Lamps: 0000000000000001
Time:                  433, reset = 1, flick = 0 | State: 0010, Max: 10, Min:  0, Counter:  2, Lampstate:  3, Lamps: 0000000000000011
Time:                  435, reset = 1, flick = 0 | State: 0010, Max: 10, Min:  0, Counter:  3, Lampstate:  3, Lamps: 0000000000000111
Time:                  437, reset = 1, flick = 0 | State: 0010, Max: 10, Min:  0, Counter:  4, Lampstate:  3, Lamps: 0000000000001111
Time:                  438, reset = 1, flick = 1 | State: 0010, Max: 10, Min:  0, Counter:  5, Lampstate:  3, Lamps: 0000000000011111
Time:                  439, reset = 1, flick = 0 | State: 0010, Max: 10, Min:  0, Counter:  6, Lampstate:  3, Lamps: 0000000000111111
Time:                  441, reset = 1, flick = 0 | State: 0010, Max: 10, Min:  0, Counter:  7, Lampstate:  3, Lamps: 0000000001111111
Time:                  443, reset = 1, flick = 0 | State: 0010, Max: 10, Min:  0, Counter:  8, Lampstate:  3, Lamps: 0000000011111111
Time:                  445, reset = 1, flick = 0 | State: 0010, Max: 10, Min:  0, Counter:  9, Lampstate:  3, Lamps: 0000000111111111
Time:                  447, reset = 1, flick = 0 | State: 0010, Max: 10, Min:  0, Counter: 10, Lampstate:  3, Lamps: 0000001111111111
Time:                  449, reset = 1, flick = 0 | State: 0100, Max: 10, Min:  0, Counter: 11, Lampstate:  4, Lamps: 0000011111111111
Time:                  451, reset = 1, flick = 0 | State: 0011, Max: 10, Min:  5, Counter: 10, Lampstate:  4, Lamps: 0000011111111111
Time:                  453, reset = 1, flick = 0 | State: 0011, Max: 10, Min:  5, Counter:  9, Lampstate:  4, Lamps: 0000001111111111
Time:                  455, reset = 1, flick = 0 | State: 0011, Max: 10, Min:  5, Counter:  8, Lampstate:  4, Lamps: 0000000111111111
Time:                  457, reset = 1, flick = 0 | State: 0011, Max: 10, Min:  5, Counter:  7, Lampstate:  4, Lamps: 0000000011111111
Time:                  459, reset = 1, flick = 0 | State: 0011, Max: 10, Min:  5, Counter:  6, Lampstate:  4, Lamps: 0000000001111111
Time:                  461, reset = 1, flick = 0 | State: 0011, Max: 10, Min:  5, Counter:  5, Lampstate:  4, Lamps: 0000000000111111
Time:                  463, reset = 1, flick = 0 | State: 0001, Max: 10, Min:  5, Counter:  4, Lampstate:  5, Lamps: 0000000000011111
Time:                  465, reset = 1, flick = 0 | State: 0010, Max: 15, Min:  5, Counter:  5, Lampstate:  5, Lamps: 0000000000011111
Time:                  467, reset = 1, flick = 0 | State: 0010, Max: 15, Min:  5, Counter:  6, Lampstate:  5, Lamps: 0000000000111111
Time:                  469, reset = 1, flick = 0 | State: 0010, Max: 15, Min:  5, Counter:  7, Lampstate:  5, Lamps: 0000000001111111
Time:                  471, reset = 1, flick = 0 | State: 0010, Max: 15, Min:  5, Counter:  8, Lampstate:  5, Lamps: 0000000011111111
Time:                  473, reset = 1, flick = 0 | State: 0010, Max: 15, Min:  5, Counter:  9, Lampstate:  5, Lamps: 0000000111111111
Time:                  475, reset = 1, flick = 0 | State: 0010, Max: 15, Min:  5, Counter: 10, Lampstate:  5, Lamps: 0000001111111111
Time:                  477, reset = 1, flick = 0 | State: 0010, Max: 15, Min:  5, Counter: 11, Lampstate:  5, Lamps: 0000011111111111
Time:                  479, reset = 1, flick = 0 | State: 0010, Max: 15, Min:  5, Counter: 12, Lampstate:  5, Lamps: 0000111111111111
Time:                  481, reset = 1, flick = 0 | State: 0010, Max: 15, Min:  5, Counter: 13, Lampstate:  5, Lamps: 0001111111111111
Time:                  483, reset = 1, flick = 0 | State: 0010, Max: 15, Min:  5, Counter: 14, Lampstate:  5, Lamps: 0011111111111111
Time:                  485, reset = 1, flick = 0 | State: 0010, Max: 15, Min:  5, Counter: 15, Lampstate:  5, Lamps: 0111111111111111
Time:                  487, reset = 1, flick = 0 | State: 0100, Max: 15, Min:  5, Counter: 16, Lampstate:  6, Lamps: 1111111111111111
Time:                  489, reset = 1, flick = 0 | State: 0011, Max: 15, Min:  0, Counter: 15, Lampstate:  6, Lamps: 1111111111111111
Time:                  491, reset = 1, flick = 0 | State: 0011, Max: 15, Min:  0, Counter: 14, Lampstate:  6, Lamps: 0111111111111111
Time:                  493, reset = 1, flick = 0 | State: 0011, Max: 15, Min:  0, Counter: 13, Lampstate:  6, Lamps: 0011111111111111
Time:                  495, reset = 1, flick = 0 | State: 0011, Max: 15, Min:  0, Counter: 12, Lampstate:  6, Lamps: 0001111111111111
Time:                  497, reset = 1, flick = 0 | State: 0011, Max: 15, Min:  0, Counter: 11, Lampstate:  6, Lamps: 0000111111111111
Time:                  499, reset = 1, flick = 0 | State: 0011, Max: 15, Min:  0, Counter: 10, Lampstate:  6, Lamps: 0000011111111111
Time:                  501, reset = 1, flick = 0 | State: 0011, Max: 15, Min:  0, Counter:  9, Lampstate:  6, Lamps: 0000001111111111
Time:                  503, reset = 1, flick = 0 | State: 0011, Max: 15, Min:  0, Counter:  8, Lampstate:  6, Lamps: 0000000111111111
Time:                  505, reset = 1, flick = 0 | State: 0011, Max: 15, Min:  0, Counter:  7, Lampstate:  6, Lamps: 0000000011111111
Time:                  507, reset = 1, flick = 0 | State: 0011, Max: 15, Min:  0, Counter:  6, Lampstate:  6, Lamps: 0000000001111111
Time:                  509, reset = 1, flick = 0 | State: 0011, Max: 15, Min:  0, Counter:  5, Lampstate:  6, Lamps: 0000000000111111
Time:                  511, reset = 1, flick = 0 | State: 0011, Max: 15, Min:  0, Counter:  4, Lampstate:  6, Lamps: 0000000000011111
Time:                  513, reset = 1, flick = 0 | State: 0011, Max: 15, Min:  0, Counter:  3, Lampstate:  6, Lamps: 0000000000001111
Time:                  515, reset = 1, flick = 0 | State: 0011, Max: 15, Min:  0, Counter:  2, Lampstate:  6, Lamps: 0000000000000111
Time:                  517, reset = 1, flick = 0 | State: 0011, Max: 15, Min:  0, Counter:  1, Lampstate:  6, Lamps: 0000000000000011
Time:                  519, reset = 1, flick = 0 | State: 0011, Max: 15, Min:  0, Counter:  0, Lampstate:  6, Lamps: 0000000000000001
Time:                  521, reset = 1, flick = 0 | State: 0001, Max: 15, Min:  0, Counter: 31, Lampstate:  7, Lamps: 0000000000000000
Time:                  523, reset = 1, flick = 0 | State: 0100, Max: 15, Min:  0, Counter:  0, Lampstate:  7, Lamps: 1111111111111111
Time:                  525, reset = 1, flick = 0 | State: 0000, Max: 15, Min:  0, Counter: 15, Lampstate:  7, Lamps: 0000000000000000
Time:                  527, reset = 1, flick = 0 | State: 0000, Max:  0, Min:  0, Counter:  0, Lampstate:  1, Lamps: 0000000000000000
