project_1/project_1.sim/sim_1/behav/xsim/simulate.log
Time resolution is 1 ps
Time:                    1, reset = 1, flick = 0 | State: 0000, Max:  0, Min:  0, Counter:  0, Lampstate:  1, Lamps: 0000000000000000
Time:                  101, reset = 1, flick = 1 | State: 0001, Max:  0, Min:  0, Counter:  0, Lampstate:  1, Lamps: 0000000000000000
Time:                  103, reset = 1, flick = 1 | State: 0010, Max:  5, Min:  0, Counter:  0, Lampstate:  1, Lamps: 0000000000000000
Time:                  105, reset = 1, flick = 1 | State: 0010, Max:  5, Min:  0, Counter:  1, Lampstate:  1, Lamps: 0000000000000001
Time:                  107, reset = 1, flick = 1 | State: 0010, Max:  5, Min:  0, Counter:  2, Lampstate:  1, Lamps: 0000000000000011
Time:                  109, reset = 1, flick = 1 | State: 0010, Max:  5, Min:  0, Counter:  3, Lampstate:  1, Lamps: 0000000000000111
Time:                  111, reset = 1, flick = 0 | State: 0010, Max:  5, Min:  0, Counter:  4, Lampstate:  1, Lamps: 0000000000001111
Time:                  113, reset = 1, flick = 0 | State: 0010, Max:  5, Min:  0, Counter:  5, Lampstate:  1, Lamps: 0000000000011111
Time:                  115, reset = 1, flick = 0 | State: 0100, Max:  5, Min:  0, Counter:  6, Lampstate:  2, Lamps: 0000000000111111
Time:                  117, reset = 1, flick = 0 | State: 0011, Max:  5, Min:  0, Counter:  5, Lampstate:  2, Lamps: 0000000000111111
Time:                  119, reset = 1, flick = 0 | State: 0011, Max:  5, Min:  0, Counter:  4, Lampstate:  2, Lamps: 0000000000011111
Time:                  121, reset = 1, flick = 0 | State: 0011, Max:  5, Min:  0, Counter:  3, Lampstate:  2, Lamps: 0000000000001111
Time:                  123, reset = 1, flick = 0 | State: 0011, Max:  5, Min:  0, Counter:  2, Lampstate:  2, Lamps: 0000000000000111
Time:                  125, reset = 1, flick = 0 | State: 0011, Max:  5, Min:  0, Counter:  1, Lampstate:  2, Lamps: 0000000000000011
Time:                  127, reset = 1, flick = 0 | State: 0011, Max:  5, Min:  0, Counter:  0, Lampstate:  2, Lamps: 0000000000000001
Time:                  129, reset = 1, flick = 0 | State: 0001, Max:  5, Min:  0, Counter: 31, Lampstate:  3, Lamps: 0000000000000000
Time:                  131, reset = 1, flick = 1 | State: 0010, Max: 10, Min:  0, Counter:  0, Lampstate:  3, Lamps: 0000000000000000
Time:                  133, reset = 1, flick = 1 | State: 0010, Max: 10, Min:  0, Counter:  1, Lampstate:  3, Lamps: 0000000000000001
Time:                  135, reset = 1, flick = 1 | State: 0010, Max: 10, Min:  0, Counter:  2, Lampstate:  3, Lamps: 0000000000000011
Time:                  137, reset = 1, flick = 1 | State: 0010, Max: 10, Min:  0, Counter:  3, Lampstate:  3, Lamps: 0000000000000111
Time:                  139, reset = 1, flick = 1 | State: 0010, Max: 10, Min:  0, Counter:  4, Lampstate:  3, Lamps: 0000000000001111
Time:                  141, reset = 1, flick = 0 | State: 0010, Max: 10, Min:  0, Counter:  5, Lampstate:  3, Lamps: 0000000000011111
Time:                  143, reset = 1, flick = 0 | State: 0010, Max: 10, Min:  0, Counter:  6, Lampstate:  3, Lamps: 0000000000111111
Time:                  145, reset = 1, flick = 0 | State: 0010, Max: 10, Min:  0, Counter:  7, Lampstate:  3, Lamps: 0000000001111111
Time:                  147, reset = 1, flick = 0 | State: 0010, Max: 10, Min:  0, Counter:  8, Lampstate:  3, Lamps: 0000000011111111
Time:                  149, reset = 1, flick = 0 | State: 0010, Max: 10, Min:  0, Counter:  9, Lampstate:  3, Lamps: 0000000111111111
Time:                  151, reset = 1, flick = 0 | State: 0010, Max: 10, Min:  0, Counter: 10, Lampstate:  3, Lamps: 0000001111111111
Time:                  153, reset = 1, flick = 0 | State: 0100, Max: 10, Min:  0, Counter: 11, Lampstate:  4, Lamps: 0000011111111111
Time:                  155, reset = 1, flick = 0 | State: 0011, Max: 10, Min:  5, Counter: 10, Lampstate:  4, Lamps: 0000011111111111
Time:                  157, reset = 1, flick = 0 | State: 0011, Max: 10, Min:  5, Counter:  9, Lampstate:  4, Lamps: 0000001111111111
Time:                  159, reset = 1, flick = 0 | State: 0011, Max: 10, Min:  5, Counter:  8, Lampstate:  4, Lamps: 0000000111111111
Time:                  161, reset = 1, flick = 1 | State: 0011, Max: 10, Min:  5, Counter:  7, Lampstate:  4, Lamps: 0000000011111111
Time:                  163, reset = 1, flick = 1 | State: 0011, Max: 10, Min:  5, Counter:  6, Lampstate:  4, Lamps: 0000000001111111
Time:                  165, reset = 1, flick = 1 | State: 0011, Max: 10, Min:  5, Counter:  5, Lampstate:  4, Lamps: 0000000000111111
Time:                  166, reset = 1, flick = 0 | State: 0011, Max: 10, Min:  5, Counter:  5, Lampstate:  4, Lamps: 0000000000111111
Time:                  167, reset = 1, flick = 0 | State: 0001, Max: 10, Min:  5, Counter:  4, Lampstate:  5, Lamps: 0000000000011111
Time:                  169, reset = 1, flick = 0 | State: 0010, Max: 15, Min:  5, Counter:  5, Lampstate:  5, Lamps: 0000000000011111
Time:                  171, reset = 1, flick = 0 | State: 0010, Max: 15, Min:  5, Counter:  6, Lampstate:  5, Lamps: 0000000000111111
Time:                  173, reset = 1, flick = 0 | State: 0010, Max: 15, Min:  5, Counter:  7, Lampstate:  5, Lamps: 0000000001111111
Time:                  175, reset = 1, flick = 0 | State: 0010, Max: 15, Min:  5, Counter:  8, Lampstate:  5, Lamps: 0000000011111111
Time:                  176, reset = 1, flick = 1 | State: 0010, Max: 15, Min:  5, Counter:  9, Lampstate:  5, Lamps: 0000000111111111
Time:                  177, reset = 1, flick = 0 | State: 0010, Max: 15, Min:  5, Counter: 10, Lampstate:  5, Lamps: 0000001111111111
Time:                  179, reset = 1, flick = 0 | State: 0010, Max: 15, Min:  5, Counter: 11, Lampstate:  5, Lamps: 0000011111111111
Time:                  181, reset = 1, flick = 0 | State: 0010, Max: 15, Min:  5, Counter: 12, Lampstate:  5, Lamps: 0000111111111111
Time:                  183, reset = 1, flick = 0 | State: 0010, Max: 15, Min:  5, Counter: 13, Lampstate:  5, Lamps: 0001111111111111
Time:                  185, reset = 1, flick = 0 | State: 0010, Max: 15, Min:  5, Counter: 14, Lampstate:  5, Lamps: 0011111111111111
Time:                  187, reset = 1, flick = 0 | State: 0010, Max: 15, Min:  5, Counter: 15, Lampstate:  5, Lamps: 0111111111111111
Time:                  189, reset = 1, flick = 0 | State: 0100, Max: 15, Min:  5, Counter: 16, Lampstate:  6, Lamps: 1111111111111111
Time:                  191, reset = 1, flick = 0 | State: 0011, Max: 15, Min:  0, Counter: 15, Lampstate:  6, Lamps: 1111111111111111
Time:                  193, reset = 1, flick = 0 | State: 0011, Max: 15, Min:  0, Counter: 14, Lampstate:  6, Lamps: 0111111111111111
Time:                  195, reset = 1, flick = 0 | State: 0011, Max: 15, Min:  0, Counter: 13, Lampstate:  6, Lamps: 0011111111111111
Time:                  197, reset = 1, flick = 0 | State: 0011, Max: 15, Min:  0, Counter: 12, Lampstate:  6, Lamps: 0001111111111111
Time:                  199, reset = 1, flick = 0 | State: 0011, Max: 15, Min:  0, Counter: 11, Lampstate:  6, Lamps: 0000111111111111
Time:                  201, reset = 1, flick = 0 | State: 0011, Max: 15, Min:  0, Counter: 10, Lampstate:  6, Lamps: 0000011111111111
Time:                  203, reset = 1, flick = 0 | State: 0011, Max: 15, Min:  0, Counter:  9, Lampstate:  6, Lamps: 0000001111111111
Time:                  205, reset = 1, flick = 0 | State: 0011, Max: 15, Min:  0, Counter:  8, Lampstate:  6, Lamps: 0000000111111111
Time:                  207, reset = 1, flick = 0 | State: 0011, Max: 15, Min:  0, Counter:  7, Lampstate:  6, Lamps: 0000000011111111
Time:                  209, reset = 1, flick = 0 | State: 0011, Max: 15, Min:  0, Counter:  6, Lampstate:  6, Lamps: 0000000001111111
Time:                  211, reset = 1, flick = 0 | State: 0011, Max: 15, Min:  0, Counter:  5, Lampstate:  6, Lamps: 0000000000111111
Time:                  213, reset = 1, flick = 0 | State: 0011, Max: 15, Min:  0, Counter:  4, Lampstate:  6, Lamps: 0000000000011111
Time:                  215, reset = 1, flick = 0 | State: 0011, Max: 15, Min:  0, Counter:  3, Lampstate:  6, Lamps: 0000000000001111
Time:                  217, reset = 1, flick = 0 | State: 0011, Max: 15, Min:  0, Counter:  2, Lampstate:  6, Lamps: 0000000000000111
Time:                  219, reset = 1, flick = 0 | State: 0011, Max: 15, Min:  0, Counter:  1, Lampstate:  6, Lamps: 0000000000000011
Time:                  221, reset = 1, flick = 0 | State: 0011, Max: 15, Min:  0, Counter:  0, Lampstate:  6, Lamps: 0000000000000001
Time:                  223, reset = 1, flick = 0 | State: 0001, Max: 15, Min:  0, Counter: 31, Lampstate:  7, Lamps: 0000000000000000
Time:                  225, reset = 1, flick = 0 | State: 0100, Max: 15, Min:  0, Counter:  0, Lampstate:  7, Lamps: 1111111111111111
Time:                  227, reset = 1, flick = 0 | State: 0000, Max: 15, Min:  0, Counter: 15, Lampstate:  7, Lamps: 0000000000000000
Time:                  229, reset = 1, flick = 0 | State: 0000, Max:  0, Min:  0, Counter:  0, Lampstate:  1, Lamps: 0000000000000000
Time:                  477, reset = 1, flick = 1 | State: 0001, Max:  0, Min:  0, Counter:  0, Lampstate:  1, Lamps: 0000000000000000
Time:                  478, reset = 1, flick = 0 | State: 0001, Max:  0, Min:  0, Counter:  0, Lampstate:  1, Lamps: 0000000000000000
Time:                  479, reset = 1, flick = 0 | State: 0010, Max:  5, Min:  0, Counter:  0, Lampstate:  1, Lamps: 0000000000000000
Time:                  481, reset = 1, flick = 0 | State: 0010, Max:  5, Min:  0, Counter:  1, Lampstate:  1, Lamps: 0000000000000001
Time:                  483, reset = 1, flick = 0 | State: 0010, Max:  5, Min:  0, Counter:  2, Lampstate:  1, Lamps: 0000000000000011
Time:                  485, reset = 1, flick = 0 | State: 0010, Max:  5, Min:  0, Counter:  3, Lampstate:  1, Lamps: 0000000000000111
Time:                  487, reset = 1, flick = 0 | State: 0010, Max:  5, Min:  0, Counter:  4, Lampstate:  1, Lamps: 0000000000001111
Time:                  489, reset = 1, flick = 0 | State: 0010, Max:  5, Min:  0, Counter:  5, Lampstate:  1, Lamps: 0000000000011111
Time:                  491, reset = 1, flick = 0 | State: 0100, Max:  5, Min:  0, Counter:  6, Lampstate:  2, Lamps: 0000000000111111
Time:                  493, reset = 1, flick = 0 | State: 0011, Max:  5, Min:  0, Counter:  5, Lampstate:  2, Lamps: 0000000000111111
Time:                  495, reset = 1, flick = 0 | State: 0011, Max:  5, Min:  0, Counter:  4, Lampstate:  2, Lamps: 0000000000011111
Time:                  497, reset = 1, flick = 0 | State: 0011, Max:  5, Min:  0, Counter:  3, Lampstate:  2, Lamps: 0000000000001111
Time:                  499, reset = 1, flick = 0 | State: 0011, Max:  5, Min:  0, Counter:  2, Lampstate:  2, Lamps: 0000000000000111
Time:                  501, reset = 1, flick = 0 | State: 0011, Max:  5, Min:  0, Counter:  1, Lampstate:  2, Lamps: 0000000000000011
Time:                  503, reset = 1, flick = 0 | State: 0011, Max:  5, Min:  0, Counter:  0, Lampstate:  2, Lamps: 0000000000000001
Time:                  505, reset = 1, flick = 0 | State: 0001, Max:  5, Min:  0, Counter: 31, Lampstate:  3, Lamps: 0000000000000000
Time:                  507, reset = 1, flick = 0 | State: 0010, Max: 10, Min:  0, Counter:  0, Lampstate:  3, Lamps: 0000000000000000
Time:                  509, reset = 1, flick = 0 | State: 0010, Max: 10, Min:  0, Counter:  1, Lampstate:  3, Lamps: 0000000000000001
Time:                  511, reset = 1, flick = 0 | State: 0010, Max: 10, Min:  0, Counter:  2, Lampstate:  3, Lamps: 0000000000000011
Time:                  513, reset = 1, flick = 0 | State: 0010, Max: 10, Min:  0, Counter:  3, Lampstate:  3, Lamps: 0000000000000111
Time:                  515, reset = 1, flick = 0 | State: 0010, Max: 10, Min:  0, Counter:  4, Lampstate:  3, Lamps: 0000000000001111
Time:                  517, reset = 1, flick = 0 | State: 0010, Max: 10, Min:  0, Counter:  5, Lampstate:  3, Lamps: 0000000000011111
Time:                  519, reset = 1, flick = 0 | State: 0010, Max: 10, Min:  0, Counter:  6, Lampstate:  3, Lamps: 0000000000111111
Time:                  521, reset = 1, flick = 0 | State: 0010, Max: 10, Min:  0, Counter:  7, Lampstate:  3, Lamps: 0000000001111111
Time:                  523, reset = 1, flick = 0 | State: 0010, Max: 10, Min:  0, Counter:  8, Lampstate:  3, Lamps: 0000000011111111
Time:                  525, reset = 1, flick = 0 | State: 0010, Max: 10, Min:  0, Counter:  9, Lampstate:  3, Lamps: 0000000111111111
Time:                  527, reset = 1, flick = 0 | State: 0010, Max: 10, Min:  0, Counter: 10, Lampstate:  3, Lamps: 0000001111111111
Time:                  529, reset = 1, flick = 0 | State: 0100, Max: 10, Min:  0, Counter: 11, Lampstate:  4, Lamps: 0000011111111111
Time:                  531, reset = 1, flick = 0 | State: 0011, Max: 10, Min:  5, Counter: 10, Lampstate:  4, Lamps: 0000011111111111
Time:                  533, reset = 1, flick = 0 | State: 0011, Max: 10, Min:  5, Counter:  9, Lampstate:  4, Lamps: 0000001111111111
Time:                  535, reset = 1, flick = 0 | State: 0011, Max: 10, Min:  5, Counter:  8, Lampstate:  4, Lamps: 0000000111111111
Time:                  537, reset = 1, flick = 0 | State: 0011, Max: 10, Min:  5, Counter:  7, Lampstate:  4, Lamps: 0000000011111111
Time:                  539, reset = 1, flick = 0 | State: 0011, Max: 10, Min:  5, Counter:  6, Lampstate:  4, Lamps: 0000000001111111
Time:                  541, reset = 1, flick = 0 | State: 0011, Max: 10, Min:  5, Counter:  5, Lampstate:  4, Lamps: 0000000000111111
Time:                  543, reset = 1, flick = 0 | State: 0001, Max: 10, Min:  5, Counter:  4, Lampstate:  5, Lamps: 0000000000011111
Time:                  545, reset = 1, flick = 0 | State: 0010, Max: 15, Min:  5, Counter:  5, Lampstate:  5, Lamps: 0000000000011111
Time:                  547, reset = 1, flick = 0 | State: 0010, Max: 15, Min:  5, Counter:  6, Lampstate:  5, Lamps: 0000000000111111
Time:                  549, reset = 1, flick = 0 | State: 0010, Max: 15, Min:  5, Counter:  7, Lampstate:  5, Lamps: 0000000001111111
Time:                  551, reset = 1, flick = 0 | State: 0010, Max: 15, Min:  5, Counter:  8, Lampstate:  5, Lamps: 0000000011111111
Time:                  553, reset = 1, flick = 0 | State: 0010, Max: 15, Min:  5, Counter:  9, Lampstate:  5, Lamps: 0000000111111111
Time:                  555, reset = 1, flick = 0 | State: 0010, Max: 15, Min:  5, Counter: 10, Lampstate:  5, Lamps: 0000001111111111
Time:                  557, reset = 1, flick = 0 | State: 0010, Max: 15, Min:  5, Counter: 11, Lampstate:  5, Lamps: 0000011111111111
Time:                  559, reset = 1, flick = 0 | State: 0010, Max: 15, Min:  5, Counter: 12, Lampstate:  5, Lamps: 0000111111111111
Time:                  561, reset = 1, flick = 0 | State: 0010, Max: 15, Min:  5, Counter: 13, Lampstate:  5, Lamps: 0001111111111111
Time:                  563, reset = 1, flick = 0 | State: 0010, Max: 15, Min:  5, Counter: 14, Lampstate:  5, Lamps: 0011111111111111
Time:                  565, reset = 1, flick = 0 | State: 0010, Max: 15, Min:  5, Counter: 15, Lampstate:  5, Lamps: 0111111111111111
Time:                  567, reset = 1, flick = 0 | State: 0100, Max: 15, Min:  5, Counter: 16, Lampstate:  6, Lamps: 1111111111111111
Time:                  569, reset = 1, flick = 0 | State: 0011, Max: 15, Min:  0, Counter: 15, Lampstate:  6, Lamps: 1111111111111111
Time:                  571, reset = 1, flick = 0 | State: 0011, Max: 15, Min:  0, Counter: 14, Lampstate:  6, Lamps: 0111111111111111
Time:                  573, reset = 1, flick = 0 | State: 0011, Max: 15, Min:  0, Counter: 13, Lampstate:  6, Lamps: 0011111111111111
Time:                  575, reset = 1, flick = 0 | State: 0011, Max: 15, Min:  0, Counter: 12, Lampstate:  6, Lamps: 0001111111111111
Time:                  577, reset = 1, flick = 0 | State: 0011, Max: 15, Min:  0, Counter: 11, Lampstate:  6, Lamps: 0000111111111111
Time:                  579, reset = 1, flick = 0 | State: 0011, Max: 15, Min:  0, Counter: 10, Lampstate:  6, Lamps: 0000011111111111
Time:                  581, reset = 1, flick = 0 | State: 0011, Max: 15, Min:  0, Counter:  9, Lampstate:  6, Lamps: 0000001111111111
Time:                  583, reset = 1, flick = 0 | State: 0011, Max: 15, Min:  0, Counter:  8, Lampstate:  6, Lamps: 0000000111111111
Time:                  585, reset = 1, flick = 0 | State: 0011, Max: 15, Min:  0, Counter:  7, Lampstate:  6, Lamps: 0000000011111111
Time:                  587, reset = 1, flick = 0 | State: 0011, Max: 15, Min:  0, Counter:  6, Lampstate:  6, Lamps: 0000000001111111
Time:                  589, reset = 1, flick = 0 | State: 0011, Max: 15, Min:  0, Counter:  5, Lampstate:  6, Lamps: 0000000000111111
Time:                  591, reset = 1, flick = 0 | State: 0011, Max: 15, Min:  0, Counter:  4, Lampstate:  6, Lamps: 0000000000011111
Time:                  593, reset = 1, flick = 0 | State: 0011, Max: 15, Min:  0, Counter:  3, Lampstate:  6, Lamps: 0000000000001111
Time:                  595, reset = 1, flick = 0 | State: 0011, Max: 15, Min:  0, Counter:  2, Lampstate:  6, Lamps: 0000000000000111
Time:                  597, reset = 1, flick = 0 | State: 0011, Max: 15, Min:  0, Counter:  1, Lampstate:  6, Lamps: 0000000000000011
Time:                  599, reset = 1, flick = 0 | State: 0011, Max: 15, Min:  0, Counter:  0, Lampstate:  6, Lamps: 0000000000000001
Time:                  601, reset = 1, flick = 0 | State: 0001, Max: 15, Min:  0, Counter: 31, Lampstate:  7, Lamps: 0000000000000000
Time:                  603, reset = 1, flick = 0 | State: 0100, Max: 15, Min:  0, Counter:  0, Lampstate:  7, Lamps: 1111111111111111
Time:                  605, reset = 1, flick = 0 | State: 0000, Max: 15, Min:  0, Counter: 15, Lampstate:  7, Lamps: 0000000000000000
Time:                  607, reset = 1, flick = 0 | State: 0000, Max:  0, Min:  0, Counter:  0, Lampstate:  1, Lamps: 0000000000000000
Time:                  778, reset = 1, flick = 1 | State: 0001, Max:  0, Min:  0, Counter:  0, Lampstate:  1, Lamps: 0000000000000000
Time:                  779, reset = 1, flick = 0 | State: 0010, Max:  5, Min:  0, Counter:  0, Lampstate:  1, Lamps: 0000000000000000
Time:                  781, reset = 1, flick = 0 | State: 0010, Max:  5, Min:  0, Counter:  1, Lampstate:  1, Lamps: 0000000000000001
Time:                  783, reset = 1, flick = 0 | State: 0010, Max:  5, Min:  0, Counter:  2, Lampstate:  1, Lamps: 0000000000000011
Time:                  785, reset = 1, flick = 0 | State: 0010, Max:  5, Min:  0, Counter:  3, Lampstate:  1, Lamps: 0000000000000111
Time:                  787, reset = 1, flick = 0 | State: 0010, Max:  5, Min:  0, Counter:  4, Lampstate:  1, Lamps: 0000000000001111
Time:                  789, reset = 1, flick = 0 | State: 0010, Max:  5, Min:  0, Counter:  5, Lampstate:  1, Lamps: 0000000000011111
Time:                  791, reset = 1, flick = 0 | State: 0100, Max:  5, Min:  0, Counter:  6, Lampstate:  2, Lamps: 0000000000111111
Time:                  793, reset = 1, flick = 0 | State: 0011, Max:  5, Min:  0, Counter:  5, Lampstate:  2, Lamps: 0000000000111111
Time:                  795, reset = 1, flick = 0 | State: 0011, Max:  5, Min:  0, Counter:  4, Lampstate:  2, Lamps: 0000000000011111
Time:                  797, reset = 1, flick = 0 | State: 0011, Max:  5, Min:  0, Counter:  3, Lampstate:  2, Lamps: 0000000000001111
Time:                  799, reset = 1, flick = 0 | State: 0011, Max:  5, Min:  0, Counter:  2, Lampstate:  2, Lamps: 0000000000000111
Time:                  801, reset = 1, flick = 0 | State: 0011, Max:  5, Min:  0, Counter:  1, Lampstate:  2, Lamps: 0000000000000011
Time:                  803, reset = 1, flick = 0 | State: 0011, Max:  5, Min:  0, Counter:  0, Lampstate:  2, Lamps: 0000000000000001
Time:                  805, reset = 1, flick = 0 | State: 0001, Max:  5, Min:  0, Counter: 31, Lampstate:  3, Lamps: 0000000000000000
Time:                  807, reset = 1, flick = 0 | State: 0010, Max: 10, Min:  0, Counter:  0, Lampstate:  3, Lamps: 0000000000000000
Time:                  809, reset = 1, flick = 0 | State: 0010, Max: 10, Min:  0, Counter:  1, Lampstate:  3, Lamps: 0000000000000001
Time:                  811, reset = 1, flick = 0 | State: 0010, Max: 10, Min:  0, Counter:  2, Lampstate:  3, Lamps: 0000000000000011
Time:                  813, reset = 1, flick = 0 | State: 0010, Max: 10, Min:  0, Counter:  3, Lampstate:  3, Lamps: 0000000000000111
Time:                  815, reset = 1, flick = 0 | State: 0010, Max: 10, Min:  0, Counter:  4, Lampstate:  3, Lamps: 0000000000001111
Time:                  817, reset = 1, flick = 0 | State: 0010, Max: 10, Min:  0, Counter:  5, Lampstate:  3, Lamps: 0000000000011111
Time:                  819, reset = 1, flick = 0 | State: 0010, Max: 10, Min:  0, Counter:  6, Lampstate:  3, Lamps: 0000000000111111
Time:                  821, reset = 1, flick = 0 | State: 0010, Max: 10, Min:  0, Counter:  7, Lampstate:  3, Lamps: 0000000001111111
Time:                  823, reset = 1, flick = 0 | State: 0010, Max: 10, Min:  0, Counter:  8, Lampstate:  3, Lamps: 0000000011111111
Time:                  825, reset = 1, flick = 0 | State: 0010, Max: 10, Min:  0, Counter:  9, Lampstate:  3, Lamps: 0000000111111111
Time:                  827, reset = 1, flick = 0 | State: 0010, Max: 10, Min:  0, Counter: 10, Lampstate:  3, Lamps: 0000001111111111
Time:                  829, reset = 1, flick = 0 | State: 0100, Max: 10, Min:  0, Counter: 11, Lampstate:  4, Lamps: 0000011111111111
Time:                  831, reset = 1, flick = 0 | State: 0011, Max: 10, Min:  5, Counter: 10, Lampstate:  4, Lamps: 0000011111111111
Time:                  833, reset = 1, flick = 0 | State: 0011, Max: 10, Min:  5, Counter:  9, Lampstate:  4, Lamps: 0000001111111111
Time:                  835, reset = 1, flick = 0 | State: 0011, Max: 10, Min:  5, Counter:  8, Lampstate:  4, Lamps: 0000000111111111
Time:                  837, reset = 1, flick = 0 | State: 0011, Max: 10, Min:  5, Counter:  7, Lampstate:  4, Lamps: 0000000011111111
Time:                  839, reset = 1, flick = 0 | State: 0011, Max: 10, Min:  5, Counter:  6, Lampstate:  4, Lamps: 0000000001111111
Time:                  841, reset = 1, flick = 0 | State: 0011, Max: 10, Min:  5, Counter:  5, Lampstate:  4, Lamps: 0000000000111111
Time:                  843, reset = 1, flick = 0 | State: 0001, Max: 10, Min:  5, Counter:  4, Lampstate:  5, Lamps: 0000000000011111
Time:                  845, reset = 1, flick = 0 | State: 0010, Max: 15, Min:  5, Counter:  5, Lampstate:  5, Lamps: 0000000000011111
Time:                  847, reset = 1, flick = 0 | State: 0010, Max: 15, Min:  5, Counter:  6, Lampstate:  5, Lamps: 0000000000111111
Time:                  849, reset = 1, flick = 0 | State: 0010, Max: 15, Min:  5, Counter:  7, Lampstate:  5, Lamps: 0000000001111111
Time:                  851, reset = 1, flick = 0 | State: 0010, Max: 15, Min:  5, Counter:  8, Lampstate:  5, Lamps: 0000000011111111
Time:                  853, reset = 1, flick = 0 | State: 0010, Max: 15, Min:  5, Counter:  9, Lampstate:  5, Lamps: 0000000111111111
Time:                  855, reset = 1, flick = 0 | State: 0010, Max: 15, Min:  5, Counter: 10, Lampstate:  5, Lamps: 0000001111111111
Time:                  857, reset = 1, flick = 0 | State: 0010, Max: 15, Min:  5, Counter: 11, Lampstate:  5, Lamps: 0000011111111111
Time:                  859, reset = 1, flick = 0 | State: 0010, Max: 15, Min:  5, Counter: 12, Lampstate:  5, Lamps: 0000111111111111
Time:                  861, reset = 1, flick = 0 | State: 0010, Max: 15, Min:  5, Counter: 13, Lampstate:  5, Lamps: 0001111111111111
Time:                  863, reset = 1, flick = 0 | State: 0010, Max: 15, Min:  5, Counter: 14, Lampstate:  5, Lamps: 0011111111111111
Time:                  865, reset = 1, flick = 0 | State: 0010, Max: 15, Min:  5, Counter: 15, Lampstate:  5, Lamps: 0111111111111111
Time:                  867, reset = 1, flick = 0 | State: 0100, Max: 15, Min:  5, Counter: 16, Lampstate:  6, Lamps: 1111111111111111
Time:                  869, reset = 1, flick = 0 | State: 0011, Max: 15, Min:  0, Counter: 15, Lampstate:  6, Lamps: 1111111111111111
Time:                  871, reset = 1, flick = 0 | State: 0011, Max: 15, Min:  0, Counter: 14, Lampstate:  6, Lamps: 0111111111111111
Time:                  873, reset = 1, flick = 0 | State: 0011, Max: 15, Min:  0, Counter: 13, Lampstate:  6, Lamps: 0011111111111111
Time:                  875, reset = 1, flick = 0 | State: 0011, Max: 15, Min:  0, Counter: 12, Lampstate:  6, Lamps: 0001111111111111
Time:                  877, reset = 1, flick = 0 | State: 0011, Max: 15, Min:  0, Counter: 11, Lampstate:  6, Lamps: 0000111111111111
Time:                  879, reset = 1, flick = 0 | State: 0011, Max: 15, Min:  0, Counter: 10, Lampstate:  6, Lamps: 0000011111111111
Time:                  881, reset = 1, flick = 0 | State: 0011, Max: 15, Min:  0, Counter:  9, Lampstate:  6, Lamps: 0000001111111111
Time:                  883, reset = 1, flick = 0 | State: 0011, Max: 15, Min:  0, Counter:  8, Lampstate:  6, Lamps: 0000000111111111
Time:                  885, reset = 1, flick = 0 | State: 0011, Max: 15, Min:  0, Counter:  7, Lampstate:  6, Lamps: 0000000011111111
Time:                  887, reset = 1, flick = 0 | State: 0011, Max: 15, Min:  0, Counter:  6, Lampstate:  6, Lamps: 0000000001111111
Time:                  889, reset = 1, flick = 0 | State: 0011, Max: 15, Min:  0, Counter:  5, Lampstate:  6, Lamps: 0000000000111111
Time:                  891, reset = 1, flick = 0 | State: 0011, Max: 15, Min:  0, Counter:  4, Lampstate:  6, Lamps: 0000000000011111
Time:                  893, reset = 1, flick = 0 | State: 0011, Max: 15, Min:  0, Counter:  3, Lampstate:  6, Lamps: 0000000000001111
Time:                  895, reset = 1, flick = 0 | State: 0011, Max: 15, Min:  0, Counter:  2, Lampstate:  6, Lamps: 0000000000000111
Time:                  897, reset = 1, flick = 0 | State: 0011, Max: 15, Min:  0, Counter:  1, Lampstate:  6, Lamps: 0000000000000011
Time:                  899, reset = 1, flick = 0 | State: 0011, Max: 15, Min:  0, Counter:  0, Lampstate:  6, Lamps: 0000000000000001
Time:                  901, reset = 1, flick = 0 | State: 0001, Max: 15, Min:  0, Counter: 31, Lampstate:  7, Lamps: 0000000000000000
Time:                  903, reset = 1, flick = 0 | State: 0100, Max: 15, Min:  0, Counter:  0, Lampstate:  7, Lamps: 1111111111111111
Time:                  905, reset = 1, flick = 0 | State: 0000, Max: 15, Min:  0, Counter: 15, Lampstate:  7, Lamps: 0000000000000000
Time:                  907, reset = 1, flick = 0 | State: 0000, Max:  0, Min:  0, Counter:  0, Lampstate:  1, Lamps: 0000000000000000
