project_1/project_1.sim/sim_1/behav/xsim/simulate.log
Time resolution is 1 ps
Time:                    1, reset = 1, flick = x | State: 0000, Max:  0, Min:  0, Counter:  0, Lampstate:  1, Lamps: 0000000000000000
Time:                  101, reset = 1, flick = 1 | State: 0001, Max:  0, Min:  0, Counter:  0, Lampstate:  1, Lamps: 0000000000000000
Time:                  102, reset = 1, flick = 0 | State: 0001, Max:  0, Min:  0, Counter:  0, Lampstate:  1, Lamps: 0000000000000000
Time:                  103, reset = 1, flick = 0 | State: 0010, Max:  5, Min:  0, Counter:  0, Lampstate:  1, Lamps: 0000000000000000
Time:                  105, reset = 1, flick = 0 | State: 0010, Max:  5, Min:  0, Counter:  1, Lampstate:  1, Lamps: 0000000000000001
Time:                  107, reset = 1, flick = 0 | State: 0010, Max:  5, Min:  0, Counter:  2, Lampstate:  1, Lamps: 0000000000000011
Time:                  109, reset = 1, flick = 0 | State: 0010, Max:  5, Min:  0, Counter:  3, Lampstate:  1, Lamps: 0000000000000111
Time:                  111, reset = 1, flick = 0 | State: 0010, Max:  5, Min:  0, Counter:  4, Lampstate:  1, Lamps: 0000000000001111
Time:                  113, reset = 1, flick = 0 | State: 0010, Max:  5, Min:  0, Counter:  5, Lampstate:  1, Lamps: 0000000000011111
Time:                  115, reset = 1, flick = 0 | State: 0100, Max:  5, Min:  0, Counter:  6, Lampstate:  2, Lamps: 0000000000111111
Time:                  117, reset = 1, flick = 1 | State: 0011, Max:  5, Min:  0, Counter:  5, Lampstate:  2, Lamps: 0000000000111111
Time:                  118, reset = 1, flick = 0 | State: 0011, Max:  5, Min:  0, Counter:  5, Lampstate:  2, Lamps: 0000000000111111
Time:                  119, reset = 1, flick = 0 | State: 0011, Max:  5, Min:  0, Counter:  4, Lampstate:  2, Lamps: 0000000000011111
Time:                  121, reset = 1, flick = 0 | State: 0011, Max:  5, Min:  0, Counter:  3, Lampstate:  2, Lamps: 0000000000001111
Time:                  123, reset = 1, flick = 0 | State: 0011, Max:  5, Min:  0, Counter:  2, Lampstate:  2, Lamps: 0000000000000111
Time:                  125, reset = 1, flick = 0 | State: 0011, Max:  5, Min:  0, Counter:  1, Lampstate:  2, Lamps: 0000000000000011
Time:                  127, reset = 1, flick = 0 | State: 0011, Max:  5, Min:  0, Counter:  0, Lampstate:  2, Lamps: 0000000000000001
Time:                  129, reset = 1, flick = 0 | State: 0001, Max:  5, Min:  0, Counter: 31, Lampstate:  3, Lamps: 0000000000000000
Time:                  131, reset = 1, flick = 0 | State: 0010, Max: 10, Min:  0, Counter:  0, Lampstate:  3, Lamps: 0000000000000000
Time:                  133, reset = 1, flick = 0 | State: 0010, Max: 10, Min:  0, Counter:  1, Lampstate:  3, Lamps: 0000000000000001
Time:                  135, reset = 1, flick = 0 | State: 0010, Max: 10, Min:  0, Counter:  2, Lampstate:  3, Lamps: 0000000000000011
Time:                  137, reset = 1, flick = 0 | State: 0010, Max: 10, Min:  0, Counter:  3, Lampstate:  3, Lamps: 0000000000000111
Time:                  139, reset = 1, flick = 0 | State: 0010, Max: 10, Min:  0, Counter:  4, Lampstate:  3, Lamps: 0000000000001111
Time:                  141, reset = 1, flick = 0 | State: 0010, Max: 10, Min:  0, Counter:  5, Lampstate:  3, Lamps: 0000000000011111
Time:                  143, reset = 1, flick = 0 | State: 0010, Max: 10, Min:  0, Counter:  6, Lampstate:  3, Lamps: 0000000000111111
Time:                  145, reset = 1, flick = 1 | State: 0010, Max: 10, Min:  0, Counter:  7, Lampstate:  3, Lamps: 0000000001111111
Time:                  146, reset = 1, flick = 0 | State: 0010, Max: 10, Min:  0, Counter:  7, Lampstate:  3, Lamps: 0000000001111111
Time:                  147, reset = 1, flick = 0 | State: 0010, Max: 10, Min:  0, Counter:  8, Lampstate:  3, Lamps: 0000000011111111
Time:                  149, reset = 1, flick = 0 | State: 0010, Max: 10, Min:  0, Counter:  9, Lampstate:  3, Lamps: 0000000111111111
Time:                  151, reset = 1, flick = 0 | State: 0010, Max: 10, Min:  0, Counter: 10, Lampstate:  3, Lamps: 0000001111111111
Time:                  153, reset = 1, flick = 0 | State: 0100, Max: 10, Min:  0, Counter: 11, Lampstate:  4, Lamps: 0000011111111111
Time:                  155, reset = 1, flick = 0 | State: 0011, Max: 10, Min:  5, Counter: 10, Lampstate:  4, Lamps: 0000011111111111
Time:                  157, reset = 1, flick = 0 | State: 0011, Max: 10, Min:  5, Counter:  9, Lampstate:  4, Lamps: 0000001111111111
Time:                  159, reset = 1, flick = 0 | State: 0011, Max: 10, Min:  5, Counter:  8, Lampstate:  4, Lamps: 0000000111111111
Time:                  161, reset = 1, flick = 0 | State: 0011, Max: 10, Min:  5, Counter:  7, Lampstate:  4, Lamps: 0000000011111111
Time:                  163, reset = 1, flick = 0 | State: 0011, Max: 10, Min:  5, Counter:  6, Lampstate:  4, Lamps: 0000000001111111
Time:                  165, reset = 1, flick = 0 | State: 0011, Max: 10, Min:  5, Counter:  5, Lampstate:  4, Lamps: 0000000000111111
Time:                  167, reset = 1, flick = 0 | State: 0001, Max: 10, Min:  5, Counter:  4, Lampstate:  5, Lamps: 0000000000011111
Time:                  169, reset = 1, flick = 0 | State: 0010, Max: 15, Min:  5, Counter:  5, Lampstate:  5, Lamps: 0000000000011111
Time:                  171, reset = 1, flick = 0 | State: 0010, Max: 15, Min:  5, Counter:  6, Lampstate:  5, Lamps: 0000000000111111
Time:                  173, reset = 1, flick = 0 | State: 0010, Max: 15, Min:  5, Counter:  7, Lampstate:  5, Lamps: 0000000001111111
Time:                  175, reset = 1, flick = 0 | State: 0010, Max: 15, Min:  5, Counter:  8, Lampstate:  5, Lamps: 0000000011111111
Time:                  177, reset = 1, flick = 0 | State: 0010, Max: 15, Min:  5, Counter:  9, Lampstate:  5, Lamps: 0000000111111111
Time:                  179, reset = 1, flick = 0 | State: 0010, Max: 15, Min:  5, Counter: 10, Lampstate:  5, Lamps: 0000001111111111
Time:                  180, reset = 1, flick = 1 | State: 0100, Max: 15, Min:  5, Counter: 11, Lampstate:  4, Lamps: 0000011111111111
Time:                  181, reset = 1, flick = 1 | State: 0011, Max: 10, Min:  5, Counter: 11, Lampstate:  4, Lamps: 0000011111111111
Time:                  183, reset = 1, flick = 1 | State: 0011, Max: 10, Min:  5, Counter: 10, Lampstate:  4, Lamps: 0000011111111111
Time:                  185, reset = 1, flick = 0 | State: 0011, Max: 10, Min:  5, Counter:  9, Lampstate:  4, Lamps: 0000001111111111
Time:                  187, reset = 1, flick = 0 | State: 0011, Max: 10, Min:  5, Counter:  8, Lampstate:  4, Lamps: 0000000111111111
Time:                  189, reset = 1, flick = 0 | State: 0011, Max: 10, Min:  5, Counter:  7, Lampstate:  4, Lamps: 0000000011111111
Time:                  191, reset = 1, flick = 0 | State: 0011, Max: 10, Min:  5, Counter:  6, Lampstate:  4, Lamps: 0000000001111111
Time:                  193, reset = 1, flick = 0 | State: 0011, Max: 10, Min:  5, Counter:  5, Lampstate:  4, Lamps: 0000000000111111
Time:                  195, reset = 1, flick = 0 | State: 0001, Max: 10, Min:  5, Counter:  4, Lampstate:  5, Lamps: 0000000000011111
Time:                  197, reset = 1, flick = 0 | State: 0010, Max: 15, Min:  5, Counter:  5, Lampstate:  5, Lamps: 0000000000011111
Time:                  199, reset = 1, flick = 0 | State: 0010, Max: 15, Min:  5, Counter:  6, Lampstate:  5, Lamps: 0000000000111111
Time:                  201, reset = 1, flick = 0 | State: 0010, Max: 15, Min:  5, Counter:  7, Lampstate:  5, Lamps: 0000000001111111
Time:                  203, reset = 1, flick = 0 | State: 0010, Max: 15, Min:  5, Counter:  8, Lampstate:  5, Lamps: 0000000011111111
Time:                  205, reset = 1, flick = 0 | State: 0010, Max: 15, Min:  5, Counter:  9, Lampstate:  5, Lamps: 0000000111111111
Time:                  207, reset = 1, flick = 0 | State: 0010, Max: 15, Min:  5, Counter: 10, Lampstate:  5, Lamps: 0000001111111111
Time:                  209, reset = 1, flick = 0 | State: 0010, Max: 15, Min:  5, Counter: 11, Lampstate:  5, Lamps: 0000011111111111
Time:                  211, reset = 1, flick = 0 | State: 0010, Max: 15, Min:  5, Counter: 12, Lampstate:  5, Lamps: 00001111111